<?xml version="1.0" encoding="UTF-8"?>
<!DOCTYPE svg PUBLIC "-//W3C//DTD SVG 1.1//EN" "http://www.w3.org/Graphics/SVG/1.1/DTD/svg11.dtd">
<svg version="1.2" width="279.91mm" height="171.45mm" viewBox="0 0 27991 17145" preserveAspectRatio="xMidYMid" fill-rule="evenodd" stroke-width="28.222" stroke-linejoin="round" xmlns="http://www.w3.org/2000/svg" xmlns:ooo="http://xml.openoffice.org/svg/export" xmlns:xlink="http://www.w3.org/1999/xlink" xmlns:presentation="http://sun.com/xmlns/staroffice/presentation" xmlns:smil="http://www.w3.org/2001/SMIL20/" xmlns:anim="urn:oasis:names:tc:opendocument:xmlns:animation:1.0" xml:space="preserve">
 <defs class="ClipPathGroup">
  <clipPath id="presentation_clip_path" clipPathUnits="userSpaceOnUse">
   <rect x="0" y="0" width="27991" height="17145"/>
  </clipPath>
  <clipPath id="presentation_clip_path_shrink" clipPathUnits="userSpaceOnUse">
   <rect x="27" y="17" width="27936" height="17111"/>
  </clipPath>
 </defs>
 <defs>
  <font id="EmbeddedFont_1" horiz-adv-x="2048">
   <font-face font-family="Courier New embedded" units-per-em="2048" font-weight="bold" font-style="normal" ascent="1693" descent="628"/>
   <missing-glyph horiz-adv-x="2048" d="M 0,0 L 2047,0 2047,2047 0,2047 0,0 Z"/>
   <glyph unicode="y" horiz-adv-x="1176" d="M 500,7 L 145,703 C 112,707 86,718 69,737 52,756 43,778 43,805 43,836 54,861 75,880 96,899 131,908 180,908 L 367,908 C 416,908 452,899 473,880 494,861 504,836 504,805 504,775 494,751 473,732 452,713 418,703 373,703 L 615,232 855,703 C 811,703 779,713 758,732 737,751 726,775 726,806 726,836 737,861 758,880 779,899 814,908 863,908 L 1056,908 C 1105,908 1140,899 1161,880 1182,861 1192,836 1192,805 1192,778 1183,755 1165,736 1147,717 1120,706 1085,703 L 615,-223 C 666,-223 700,-228 716,-238 748,-259 764,-288 764,-326 764,-356 754,-381 733,-400 712,-419 676,-428 627,-428 L 180,-428 C 131,-428 96,-419 75,-400 54,-381 43,-356 43,-326 43,-295 54,-271 75,-252 96,-233 131,-223 180,-223 L 384,-223 Z"/>
   <glyph unicode="x" horiz-adv-x="1176" d="M 768,472 L 1079,205 C 1116,203 1144,193 1163,174 1182,155 1191,131 1191,102 1191,72 1181,48 1160,29 1139,10 1103,0 1054,0 L 821,0 C 772,0 737,10 716,29 695,48 684,73 684,104 684,128 692,149 707,168 722,186 742,198 768,205 L 615,337 459,205 C 490,197 513,185 527,168 540,151 547,130 547,104 547,73 537,48 516,29 495,10 460,0 411,0 L 180,0 C 131,0 96,10 75,29 54,48 43,72 43,103 43,131 52,155 71,174 90,193 118,203 155,205 L 459,473 190,703 C 155,706 128,717 110,736 91,755 82,778 82,806 82,836 93,861 114,880 135,899 170,908 219,908 L 411,908 C 460,908 496,899 517,880 538,861 548,836 548,807 548,768 529,736 492,711 L 616,608 738,713 C 701,739 683,769 683,803 683,835 694,861 715,880 736,899 771,908 820,908 L 1010,908 C 1059,908 1095,899 1116,880 1137,861 1147,836 1147,805 1147,778 1138,755 1120,736 1101,717 1074,706 1038,703 Z"/>
   <glyph unicode="v" horiz-adv-x="1257" d="M 616,249 L 837,703 C 782,703 747,708 732,717 699,738 682,767 682,806 682,836 693,861 714,880 735,899 770,908 819,908 L 1100,908 C 1149,908 1185,899 1206,880 1227,861 1237,836 1237,805 1237,775 1227,751 1206,732 1185,713 1149,703 1100,703 L 1066,703 723,0 509,0 166,703 137,703 C 88,703 53,713 32,732 11,751 0,775 0,806 0,836 11,861 32,880 53,899 88,908 137,908 L 412,908 C 461,908 496,899 517,880 538,861 548,836 548,805 548,767 532,738 500,718 484,708 448,703 393,703 Z"/>
   <glyph unicode="u" horiz-adv-x="1176" d="M 1050,908 L 1050,205 C 1093,205 1125,195 1146,176 1167,157 1177,132 1177,102 1177,72 1167,48 1146,29 1125,10 1089,0 1040,0 L 845,0 845,47 C 786,20 730,0 677,-13 624,-26 573,-33 525,-33 458,-33 399,-19 350,10 301,38 262,77 233,127 212,163 202,208 202,262 L 202,703 167,703 C 118,703 83,713 62,732 41,751 30,775 30,806 30,836 41,861 62,880 83,899 118,908 167,908 L 407,908 407,298 C 407,255 418,223 439,203 460,182 492,172 535,172 576,172 621,180 669,197 716,213 775,242 845,285 L 845,703 771,703 C 722,703 687,713 666,732 645,751 634,775 634,806 634,836 645,861 666,880 687,899 722,908 771,908 Z"/>
   <glyph unicode="t" horiz-adv-x="1093" d="M 564,703 L 564,292 C 564,248 573,219 591,205 619,183 669,172 741,172 846,172 942,194 1031,239 1065,256 1092,265 1111,265 1138,265 1161,255 1181,235 1200,215 1210,191 1210,162 1210,135 1199,112 1178,93 1145,62 1081,33 985,7 888,-20 807,-33 741,-33 614,-33 518,-6 455,50 391,105 359,172 359,252 L 359,703 285,703 C 236,703 201,713 180,732 159,751 148,775 148,806 148,836 159,861 180,880 201,899 236,908 285,908 L 359,908 359,1093 C 359,1142 369,1178 388,1199 407,1220 431,1230 462,1230 492,1230 517,1220 536,1199 555,1178 564,1142 564,1093 L 564,908 943,908 C 992,908 1028,899 1049,880 1070,861 1080,836 1080,805 1080,775 1070,751 1049,732 1028,713 992,703 943,703 Z"/>
   <glyph unicode="s" horiz-adv-x="956" d="M 836,668 C 803,689 768,704 731,715 694,725 656,730 616,730 537,730 474,717 427,691 406,680 396,667 396,654 396,639 410,624 438,609 459,598 507,588 581,578 717,559 812,541 865,522 935,497 989,461 1027,412 1065,363 1084,312 1084,258 1084,185 1052,123 987,74 894,3 774,-33 626,-33 567,-33 512,-28 462,-18 411,-7 365,8 323,28 313,19 302,13 291,8 280,3 268,1 256,1 224,1 199,12 180,33 161,54 151,89 151,138 L 151,207 C 151,256 161,292 180,313 199,334 223,344 254,344 279,344 299,337 316,324 333,310 346,286 355,253 386,226 424,206 468,193 512,179 563,172 620,172 714,172 787,187 839,216 864,231 876,246 876,262 876,289 858,311 823,328 788,345 715,360 604,372 439,389 329,423 274,472 219,521 191,581 191,652 191,725 222,786 284,835 368,902 478,935 614,935 661,935 707,931 751,922 794,913 836,899 876,880 889,889 901,896 912,901 923,906 933,908 942,908 970,908 993,898 1012,877 1031,856 1040,820 1040,771 L 1040,721 C 1040,676 1035,646 1024,630 1003,599 974,584 937,584 912,584 891,592 872,607 853,622 841,643 836,668 Z"/>
   <glyph unicode="r" horiz-adv-x="1093" d="M 572,908 L 572,780 C 658,842 726,883 776,904 825,925 872,935 915,935 982,935 1046,910 1109,861 1152,828 1173,794 1173,759 1173,730 1163,705 1143,685 1122,664 1098,654 1069,654 1044,654 1017,667 989,692 961,717 936,730 914,730 885,730 843,712 786,676 729,640 657,586 572,514 L 572,205 864,205 C 913,205 949,196 970,177 991,158 1001,133 1001,102 1001,72 991,48 970,29 949,10 913,0 864,0 L 245,0 C 196,0 161,10 140,29 119,48 108,72 108,103 108,133 119,158 140,177 161,196 196,205 245,205 L 367,205 367,703 293,703 C 244,703 209,713 188,732 167,751 156,775 156,806 156,836 167,861 188,880 209,899 244,908 293,908 Z"/>
   <glyph unicode="q" horiz-adv-x="1230" d="M 1090,703 L 1090,-223 1126,-223 C 1175,-223 1210,-233 1231,-252 1252,-271 1262,-295 1262,-326 1262,-356 1252,-381 1231,-400 1210,-419 1175,-428 1126,-428 L 763,-428 C 714,-428 679,-419 658,-400 637,-381 626,-356 626,-326 626,-295 637,-271 658,-252 679,-233 714,-223 763,-223 L 885,-223 885,113 C 835,82 784,59 733,44 681,29 629,21 576,21 454,21 344,58 247,131 130,219 72,331 72,466 72,589 121,698 220,793 319,888 438,935 579,935 633,935 686,927 737,911 788,895 837,871 885,838 L 885,908 1126,908 C 1175,908 1210,899 1231,880 1252,861 1262,836 1262,805 1262,775 1252,751 1231,732 1210,713 1175,703 1126,703 Z M 885,465 C 885,494 874,530 851,575 828,619 793,656 746,686 699,715 644,730 581,730 478,730 397,692 338,615 297,562 277,512 277,463 277,408 306,354 365,303 423,252 495,226 581,226 668,226 740,252 798,303 856,354 885,408 885,465 Z"/>
   <glyph unicode="p" horiz-adv-x="1202" d="M 360,113 L 360,-223 483,-223 C 532,-223 568,-233 589,-252 610,-271 620,-295 620,-326 620,-356 610,-381 589,-400 568,-419 532,-428 483,-428 L 120,-428 C 71,-428 36,-419 15,-400 -7,-381 -17,-356 -17,-326 -17,-295 -6,-271 15,-252 36,-233 71,-223 120,-223 L 155,-223 155,703 120,703 C 71,703 36,713 15,732 -7,751 -17,775 -17,806 -17,836 -7,861 15,880 36,899 71,908 120,908 L 360,908 360,838 C 408,871 458,895 509,911 560,927 613,935 667,935 807,935 926,888 1025,793 1124,698 1173,589 1173,466 1173,331 1115,219 998,131 901,58 791,21 669,21 616,21 564,29 513,44 462,59 411,82 360,113 Z M 968,465 C 968,494 957,530 934,575 911,619 877,656 830,686 783,715 727,730 664,730 562,730 481,692 421,615 380,562 360,512 360,463 360,408 389,355 448,304 506,252 578,226 664,226 751,226 823,252 881,303 939,354 968,408 968,465 Z"/>
   <glyph unicode="o" horiz-adv-x="1066" d="M 1147,437 C 1147,358 1125,282 1082,209 1038,135 973,76 887,33 800,-11 710,-33 616,-33 523,-33 433,-12 348,32 263,75 198,133 153,207 108,281 86,358 86,439 86,521 109,602 154,681 199,760 265,822 350,867 435,912 523,935 616,935 709,935 799,912 886,866 972,819 1037,757 1081,679 1125,600 1147,520 1147,437 Z M 942,436 C 942,502 918,563 871,618 806,693 721,730 616,730 523,730 446,700 384,641 322,582 291,513 291,435 291,371 322,311 385,256 448,200 525,172 616,172 708,172 785,200 848,256 911,311 942,371 942,436 Z"/>
   <glyph unicode="n" horiz-adv-x="1176" d="M 407,908 L 407,839 C 444,871 486,895 531,911 576,927 624,935 677,935 798,935 894,897 965,822 1021,762 1049,683 1049,586 L 1049,205 C 1092,205 1124,196 1145,177 1166,158 1176,133 1176,102 1176,72 1166,48 1145,29 1124,10 1088,0 1039,0 L 854,0 C 805,0 770,10 749,29 728,48 717,72 717,103 717,133 727,158 748,177 769,196 801,205 844,205 L 844,592 C 844,637 832,669 808,690 777,717 730,730 667,730 620,730 578,721 543,703 507,684 462,645 407,586 L 407,205 C 460,205 494,200 509,190 542,170 558,141 558,102 558,72 548,48 527,29 506,10 470,0 421,0 L 188,0 C 139,0 104,10 83,29 62,48 51,72 51,103 51,140 67,169 99,190 115,200 149,205 202,205 L 202,703 C 159,703 127,713 106,732 85,751 75,776 75,806 75,836 86,861 107,880 128,899 163,908 212,908 Z"/>
   <glyph unicode="m" horiz-adv-x="1340" d="M 298,908 L 298,850 C 331,883 362,905 389,918 416,930 447,936 482,936 512,936 542,929 571,914 600,899 629,877 657,848 692,877 728,899 765,914 801,928 838,935 876,935 952,935 1014,915 1061,874 1124,821 1155,751 1155,664 L 1155,205 C 1198,205 1229,195 1250,176 1271,157 1281,132 1281,102 1281,72 1271,48 1250,29 1229,10 1194,0 1145,0 L 950,0 950,647 C 950,678 944,700 933,712 922,724 904,730 881,730 858,730 837,724 818,712 793,695 763,664 728,618 L 728,205 C 771,205 802,195 823,176 844,157 854,132 854,102 854,72 844,48 823,29 802,10 767,0 718,0 L 523,0 523,647 C 523,678 517,699 506,712 494,724 476,730 453,730 429,730 405,723 382,708 359,693 331,663 298,618 L 298,205 C 341,205 373,195 394,176 415,157 425,132 425,102 425,72 415,48 394,29 373,10 337,0 288,0 L 103,0 C 54,0 19,10 -3,29 -24,48 -34,72 -34,103 -34,133 -24,158 -3,177 18,196 50,205 93,205 L 93,703 C 50,703 18,713 -3,732 -24,751 -34,776 -34,806 -34,836 -24,861 -3,880 19,899 54,908 103,908 Z"/>
   <glyph unicode="l" horiz-adv-x="1012" d="M 717,1297 L 717,205 963,205 C 1012,205 1048,196 1069,177 1090,158 1100,133 1100,102 1100,72 1090,48 1069,29 1048,10 1012,0 963,0 L 266,0 C 217,0 182,10 161,29 140,48 129,72 129,103 129,133 140,158 161,177 182,196 217,205 266,205 L 512,205 512,1092 347,1092 C 298,1092 263,1102 242,1121 221,1140 210,1164 210,1195 210,1225 221,1250 242,1269 263,1288 298,1297 347,1297 Z"/>
   <glyph unicode="k" horiz-adv-x="1148" d="M 446,341 L 446,0 206,0 C 157,0 122,10 101,29 80,48 69,72 69,103 69,133 80,158 101,177 122,196 157,205 206,205 L 241,205 241,1092 206,1092 C 157,1092 122,1102 101,1121 80,1140 69,1164 69,1195 69,1225 80,1250 101,1269 122,1288 157,1297 206,1297 L 446,1297 446,606 606,735 C 589,764 581,787 581,805 581,836 591,861 612,880 633,899 668,908 717,908 L 951,908 C 1000,908 1036,899 1057,880 1078,861 1088,836 1088,805 1088,775 1078,751 1057,732 1036,713 1000,703 951,703 L 894,703 645,501 980,205 1040,205 C 1089,205 1125,196 1146,177 1167,158 1177,133 1177,102 1177,72 1167,48 1146,29 1125,10 1089,0 1040,0 L 804,0 C 755,0 720,10 699,29 678,48 667,72 667,103 667,129 678,155 701,180 L 484,372 Z"/>
   <glyph unicode="i" horiz-adv-x="1012" d="M 688,1297 L 688,1080 444,1080 444,1297 Z M 716,908 L 716,205 962,205 C 1011,205 1047,196 1068,177 1089,158 1099,133 1099,102 1099,72 1089,48 1068,29 1047,10 1011,0 962,0 L 265,0 C 216,0 181,10 160,29 139,48 128,72 128,103 128,133 139,158 160,177 181,196 216,205 265,205 L 511,205 511,703 346,703 C 297,703 262,713 241,732 220,751 209,775 209,806 209,836 220,861 241,880 262,899 297,908 346,908 Z"/>
   <glyph unicode="g" horiz-adv-x="1175" d="M 840,847 L 840,908 1080,908 C 1129,908 1165,899 1186,880 1207,861 1217,836 1217,805 1217,775 1207,751 1186,732 1165,713 1129,703 1080,703 L 1045,703 1045,-43 C 1045,-115 1030,-178 1000,-232 969,-285 923,-331 860,-370 797,-409 727,-428 648,-428 L 416,-428 C 367,-428 332,-419 311,-400 290,-381 279,-356 279,-326 279,-295 290,-271 311,-252 332,-233 367,-223 416,-223 L 642,-223 C 705,-223 753,-206 788,-172 823,-138 840,-95 840,-43 L 840,57 C 795,28 749,6 702,-9 655,-24 606,-31 557,-31 418,-31 301,16 207,109 113,202 66,316 66,453 66,590 113,706 207,799 301,892 418,938 557,938 609,938 659,931 706,916 753,901 797,878 840,847 Z M 839,454 C 839,529 811,595 756,650 700,705 633,733 555,733 477,733 410,705 355,650 299,595 271,529 271,454 271,378 299,313 355,258 410,203 477,175 555,175 633,175 700,203 756,258 811,313 839,378 839,454 Z"/>
   <glyph unicode="f" horiz-adv-x="1038" d="M 613,703 L 613,205 905,205 C 954,205 990,196 1011,177 1032,158 1042,133 1042,102 1042,72 1032,48 1011,29 990,10 954,0 905,0 L 286,0 C 237,0 202,10 181,29 160,48 149,72 149,103 149,133 160,158 181,177 202,196 237,205 286,205 L 408,205 408,703 310,703 C 261,703 226,713 205,732 184,751 173,775 173,806 173,836 184,861 205,880 226,899 261,908 310,908 L 408,908 408,986 C 408,1075 442,1150 509,1209 576,1268 673,1297 800,1297 857,1297 922,1292 997,1282 1071,1271 1119,1257 1140,1238 1161,1219 1171,1195 1171,1166 1171,1135 1162,1109 1143,1090 1124,1070 1101,1060 1074,1060 1061,1060 1042,1062 1017,1067 932,1084 857,1092 792,1092 724,1092 677,1082 652,1062 626,1041 613,1016 613,986 L 613,908 929,908 C 978,908 1014,899 1035,880 1056,861 1066,836 1066,805 1066,775 1056,751 1035,732 1014,713 978,703 929,703 Z"/>
   <glyph unicode="e" horiz-adv-x="1093" d="M 1129,350 L 288,350 C 309,297 347,254 402,221 456,188 529,172 622,172 698,172 799,188 925,221 977,234 1013,241 1033,241 1060,241 1083,231 1102,212 1121,193 1130,168 1130,139 1130,112 1120,90 1100,71 1073,46 1008,23 905,1 802,-22 702,-33 607,-33 443,-33 312,13 214,106 115,199 66,313 66,448 66,592 119,709 226,800 332,890 454,935 593,935 676,935 753,920 823,891 892,862 944,830 978,796 1026,747 1066,686 1097,613 1118,562 1129,504 1129,437 Z M 902,555 C 871,614 830,658 779,687 728,716 668,730 598,730 529,730 469,716 418,687 367,658 326,614 294,555 Z"/>
   <glyph unicode="d" horiz-adv-x="1230" d="M 1085,1297 L 1085,205 1120,205 C 1169,205 1204,196 1225,177 1246,158 1257,133 1257,102 1257,72 1247,48 1226,29 1205,10 1169,0 1120,0 L 880,0 880,50 C 833,23 785,2 734,-12 683,-26 630,-33 575,-33 421,-33 297,12 203,101 109,190 62,300 62,433 62,572 111,690 210,788 309,886 429,935 571,935 624,935 677,927 728,911 779,894 830,870 880,837 L 880,1092 845,1092 C 796,1092 761,1102 740,1121 719,1140 708,1164 708,1194 708,1225 719,1250 740,1269 761,1288 796,1297 845,1297 Z M 880,427 C 880,512 850,583 791,642 732,701 659,730 573,730 488,730 415,701 356,642 297,583 267,513 267,430 267,355 294,293 347,245 400,196 476,172 573,172 670,172 745,196 799,245 853,293 880,354 880,427 Z"/>
   <glyph unicode="c" horiz-adv-x="1066" d="M 934,871 C 959,894 984,906 1010,906 1039,906 1064,896 1083,875 1102,854 1111,819 1111,770 L 1111,638 C 1111,589 1102,554 1083,533 1064,512 1039,502 1008,502 980,502 956,510 937,526 923,538 912,563 904,600 896,637 877,664 846,682 792,714 723,730 639,730 542,730 465,702 407,645 348,588 319,517 319,430 319,350 347,287 403,241 459,194 552,171 682,171 767,171 837,180 891,197 923,208 953,226 982,252 1011,277 1037,290 1060,290 1088,290 1112,280 1133,259 1153,238 1163,214 1163,186 1163,141 1132,98 1070,57 978,-4 843,-34 666,-34 507,-34 383,-1 294,65 174,154 114,275 114,429 114,575 163,696 260,792 357,887 484,935 641,935 698,935 750,930 799,919 848,908 893,892 934,871 Z"/>
   <glyph unicode="b" horiz-adv-x="1202" d="M 356,1297 L 356,837 C 406,870 457,894 509,911 560,927 612,935 665,935 807,935 927,886 1026,788 1125,690 1174,572 1174,433 1174,300 1127,190 1033,101 939,12 815,-33 661,-33 606,-33 554,-26 503,-12 452,2 403,23 356,50 L 356,0 116,0 C 67,0 32,10 11,29 -11,48 -21,72 -21,103 -21,133 -10,158 11,177 32,196 67,205 116,205 L 151,205 151,1092 116,1092 C 67,1092 32,1102 11,1121 -11,1140 -21,1164 -21,1195 -21,1225 -11,1250 11,1269 32,1288 67,1297 116,1297 Z M 969,427 C 969,512 939,583 880,642 821,701 748,730 662,730 577,730 504,701 445,642 386,583 356,513 356,430 356,355 383,293 436,245 489,196 565,172 662,172 759,172 835,196 889,245 942,293 969,354 969,427 Z"/>
   <glyph unicode="a" horiz-adv-x="1121" d="M 799,0 L 799,48 C 748,21 691,0 629,-14 567,-27 511,-34 460,-34 350,-34 261,-5 192,54 123,112 89,176 89,247 89,333 133,413 221,487 308,560 429,597 584,597 646,597 718,590 799,577 L 799,626 C 799,657 786,682 760,701 733,720 683,730 609,730 548,730 470,718 373,694 337,685 309,681 289,681 262,681 239,691 220,711 201,730 191,755 191,786 191,803 194,818 201,831 208,844 217,854 229,862 241,869 266,878 304,889 355,903 406,914 459,923 512,931 559,935 602,935 729,935 828,908 899,853 969,798 1004,722 1004,627 L 1004,205 1039,205 C 1088,205 1124,196 1145,177 1166,158 1176,133 1176,102 1176,72 1166,48 1145,29 1124,10 1088,0 1039,0 Z M 799,367 C 717,383 641,391 572,391 489,391 417,371 357,330 320,304 301,278 301,251 301,232 310,216 328,204 361,182 407,171 465,171 514,171 570,181 633,200 695,219 750,246 799,279 Z"/>
   <glyph unicode="_" horiz-adv-x="1421" d="M 1182,-615 L 56,-615 C 7,-615 -29,-606 -50,-587 -71,-568 -81,-544 -81,-513 -81,-482 -71,-458 -50,-439 -29,-420 7,-410 56,-410 L 1182,-410 C 1231,-410 1266,-420 1287,-439 1308,-458 1318,-482 1318,-513 1318,-543 1308,-568 1287,-587 1266,-606 1231,-615 1182,-615 Z"/>
   <glyph unicode="Y" horiz-adv-x="1176" d="M 718,509 L 718,205 856,205 C 905,205 941,196 962,177 983,158 993,133 993,102 993,72 983,48 962,29 941,10 905,0 856,0 L 375,0 C 326,0 292,10 271,29 250,48 239,72 239,103 239,133 250,158 271,177 292,196 326,205 375,205 L 513,205 513,509 174,1007 C 129,1007 96,1017 75,1036 54,1055 43,1080 43,1110 43,1141 54,1166 75,1185 96,1204 131,1213 180,1213 L 366,1212 C 415,1212 451,1203 472,1184 493,1165 503,1141 503,1110 503,1064 476,1030 422,1007 L 616,721 806,1007 C 776,1018 755,1033 742,1050 729,1067 723,1087 723,1110 723,1141 734,1165 755,1184 776,1203 811,1212 860,1213 L 1053,1212 C 1102,1212 1138,1203 1159,1184 1180,1165 1190,1141 1190,1110 1190,1079 1179,1055 1158,1036 1137,1017 1102,1007 1054,1007 Z"/>
   <glyph unicode="W" horiz-adv-x="1284" d="M 615,582 L 425,0 195,0 73,1007 C 42,1011 18,1022 2,1040 -14,1057 -22,1080 -22,1107 -22,1139 -12,1165 10,1184 31,1203 66,1213 115,1213 L 388,1212 C 437,1212 473,1203 494,1184 515,1165 525,1141 525,1110 525,1079 515,1055 494,1036 473,1017 437,1007 388,1007 L 281,1007 349,434 510,911 723,911 883,434 951,1007 844,1007 C 795,1007 760,1017 739,1036 718,1055 707,1079 707,1110 707,1141 718,1166 739,1185 760,1204 795,1213 844,1213 L 1116,1212 C 1165,1212 1201,1203 1222,1184 1243,1165 1253,1141 1253,1110 1253,1084 1245,1062 1228,1043 1211,1024 1187,1012 1156,1007 L 1038,0 812,0 Z"/>
   <glyph unicode="U" horiz-adv-x="1230" d="M 1083,1007 L 1083,426 C 1083,299 1038,192 947,103 856,14 746,-30 618,-30 555,-30 495,-19 440,4 384,26 334,59 290,102 245,145 211,191 186,238 161,285 149,347 149,426 L 149,1007 C 106,1007 74,1017 53,1036 32,1055 22,1080 22,1110 22,1141 32,1165 53,1184 74,1203 109,1212 159,1212 L 428,1213 C 477,1213 513,1204 534,1185 555,1166 565,1141 565,1110 565,1079 555,1055 534,1036 513,1017 477,1007 428,1007 L 354,1007 354,408 C 354,347 380,293 431,246 482,199 543,175 615,175 663,175 708,186 750,209 792,232 826,265 853,308 870,335 878,369 878,408 L 878,1007 804,1007 C 755,1007 720,1017 699,1036 678,1055 667,1079 667,1110 667,1141 678,1166 699,1185 720,1204 755,1213 804,1213 L 1073,1212 C 1122,1212 1158,1203 1179,1184 1200,1165 1210,1141 1210,1110 1210,1080 1200,1055 1179,1036 1158,1017 1126,1007 1083,1007 Z"/>
   <glyph unicode="T" horiz-adv-x="1066" d="M 714,1007 L 714,205 852,205 C 901,205 937,196 958,177 979,158 989,133 989,102 989,72 979,48 958,29 937,10 901,0 852,0 L 372,0 C 323,0 288,10 267,29 246,48 235,72 235,103 235,133 246,158 267,177 288,196 323,205 372,205 L 509,205 509,1007 287,1007 287,813 C 287,764 278,729 259,708 240,687 215,676 184,676 154,676 130,687 111,708 92,729 82,764 82,813 L 82,1213 1144,1212 1144,813 C 1144,764 1135,729 1116,708 1097,687 1072,676 1041,676 1011,676 987,687 968,708 949,729 939,764 939,813 L 939,1007 Z"/>
   <glyph unicode="S" horiz-adv-x="1012" d="M 315,52 C 297,31 283,17 272,11 261,5 247,2 231,2 200,2 175,13 156,34 137,55 127,89 127,138 L 127,276 C 127,325 137,361 156,382 175,403 200,413 231,413 255,413 275,407 292,394 308,381 320,360 329,331 338,301 347,281 356,270 375,249 410,228 459,207 508,186 562,175 621,175 712,175 787,196 846,239 883,265 902,297 902,335 902,360 893,384 875,407 857,429 828,447 787,462 760,472 701,486 608,503 496,524 411,549 354,578 297,607 251,649 218,702 185,755 168,813 168,875 168,973 209,1059 291,1133 373,1206 480,1243 611,1243 664,1243 713,1237 758,1226 803,1214 843,1196 880,1172 907,1198 933,1211 960,1211 990,1211 1015,1201 1034,1180 1053,1159 1062,1124 1062,1075 L 1062,921 C 1062,872 1053,837 1034,816 1015,795 990,784 960,784 935,784 913,792 894,807 879,818 868,841 861,875 854,909 844,933 833,948 814,973 785,995 746,1012 707,1029 663,1038 612,1038 538,1038 480,1021 437,987 394,952 372,916 372,879 372,854 381,829 399,806 416,782 442,763 476,750 499,741 563,726 668,705 773,684 853,662 910,637 966,612 1013,574 1050,521 1087,468 1106,406 1106,333 1106,232 1070,151 999,90 904,10 784,-30 637,-30 580,-30 525,-23 472,-10 418,4 366,25 315,52 Z"/>
   <glyph unicode="R" horiz-adv-x="1258" d="M 403,463 L 403,205 477,205 C 526,205 562,196 583,177 604,158 614,133 614,102 614,72 604,48 583,29 562,10 526,0 477,0 L 166,0 C 117,0 82,10 61,29 40,48 29,72 29,103 29,133 40,158 61,177 82,196 117,205 166,205 L 198,205 198,1007 166,1007 C 117,1007 82,1017 61,1036 40,1055 29,1079 29,1110 29,1141 40,1166 61,1185 82,1204 117,1213 166,1213 L 630,1212 C 775,1212 887,1176 967,1105 1046,1033 1086,946 1086,843 1086,779 1067,721 1030,669 993,616 936,570 861,529 904,491 951,442 1000,383 1031,345 1072,286 1124,205 1176,205 1210,200 1227,189 1257,168 1272,139 1272,102 1272,72 1262,48 1241,29 1220,10 1185,0 1136,0 L 1019,0 C 853,257 715,411 606,463 Z M 403,668 L 563,668 C 622,668 675,677 722,695 785,719 827,744 849,771 870,798 881,824 881,850 881,889 860,925 819,958 778,991 717,1007 638,1007 L 403,1007 Z"/>
   <glyph unicode="P" horiz-adv-x="1094" d="M 496,416 L 496,205 703,205 C 752,205 788,196 809,177 830,158 840,133 840,102 840,72 830,48 809,29 788,10 752,0 703,0 L 259,0 C 210,0 175,10 154,29 133,48 122,72 122,103 122,133 133,158 154,177 175,196 210,205 259,205 L 291,205 291,1007 259,1007 C 210,1007 175,1017 154,1036 133,1055 122,1079 122,1110 122,1141 133,1166 154,1185 175,1204 210,1213 259,1213 L 731,1212 C 870,1212 980,1174 1061,1099 1142,1023 1182,931 1182,822 1182,762 1168,705 1141,652 1120,612 1086,573 1038,534 989,495 940,465 890,446 839,426 773,416 690,416 Z M 496,621 L 686,621 C 775,621 846,641 899,682 951,722 977,770 977,827 977,875 956,917 914,953 871,989 811,1007 732,1007 L 496,1007 Z"/>
   <glyph unicode="O" horiz-adv-x="1176" d="M 1190,606 C 1190,424 1132,273 1017,152 901,31 767,-30 615,-30 478,-30 355,20 245,121 109,246 41,407 41,606 41,805 109,967 245,1092 355,1193 478,1243 615,1243 767,1243 901,1183 1017,1062 1132,941 1190,789 1190,606 Z M 985,606 C 985,731 947,834 872,916 797,997 711,1038 615,1038 520,1038 434,997 359,915 284,833 246,730 246,606 246,482 284,379 359,298 434,216 520,175 615,175 711,175 797,216 872,297 947,378 985,481 985,606 Z"/>
   <glyph unicode="N" horiz-adv-x="1257" d="M 358,825 L 358,205 432,205 C 481,205 517,196 538,177 559,158 569,133 569,102 569,72 559,48 538,29 517,10 481,0 432,0 L 163,0 C 114,0 79,10 58,29 37,48 26,72 26,103 26,132 36,157 57,176 78,195 110,205 153,205 L 153,1007 121,1007 C 72,1007 37,1017 16,1036 -6,1055 -16,1079 -16,1110 -16,1141 -6,1166 16,1185 37,1204 72,1213 121,1213 L 358,1212 882,390 882,1007 808,1007 C 759,1007 724,1017 703,1036 682,1055 671,1079 671,1110 671,1141 682,1166 703,1185 724,1204 759,1213 808,1213 L 1077,1212 C 1126,1212 1162,1203 1183,1184 1204,1165 1214,1141 1214,1110 1214,1080 1204,1055 1183,1036 1162,1017 1131,1007 1088,1007 L 1088,0 885,0 Z"/>
   <glyph unicode="L" horiz-adv-x="1148" d="M 529,1007 L 529,205 971,205 971,399 C 971,448 981,484 1000,505 1019,526 1043,536 1074,536 1104,536 1129,526 1148,505 1167,484 1176,448 1176,399 L 1176,0 205,0 C 156,0 121,10 100,29 79,48 68,72 68,103 68,133 79,158 100,177 121,196 156,205 205,205 L 324,205 324,1007 205,1007 C 156,1007 121,1017 100,1036 79,1055 68,1079 68,1110 68,1141 79,1166 100,1185 121,1204 156,1213 205,1213 L 649,1212 C 698,1212 734,1203 755,1184 776,1165 786,1141 786,1110 786,1079 776,1055 755,1036 734,1017 698,1007 649,1007 Z"/>
   <glyph unicode="I" horiz-adv-x="902" d="M 717,1007 L 717,205 924,205 C 973,205 1009,196 1030,177 1051,158 1061,133 1061,102 1061,72 1051,48 1030,29 1009,10 973,0 924,0 L 305,0 C 256,0 221,10 200,29 179,48 168,72 168,103 168,133 179,158 200,177 221,196 256,205 305,205 L 512,205 512,1007 305,1007 C 256,1007 221,1017 200,1036 179,1055 168,1079 168,1110 168,1141 179,1166 200,1185 221,1204 256,1213 305,1213 L 924,1212 C 973,1212 1009,1203 1030,1184 1051,1165 1061,1141 1061,1110 1061,1079 1051,1055 1030,1036 1009,1017 973,1007 924,1007 Z"/>
   <glyph unicode="H" horiz-adv-x="1176" d="M 839,502 L 401,502 401,205 433,205 C 482,205 518,196 539,177 560,158 570,133 570,102 570,72 560,48 539,29 518,10 482,0 433,0 L 182,0 C 133,0 98,10 77,29 56,48 45,72 45,103 45,140 61,169 94,190 110,201 144,206 196,205 L 196,1007 C 160,1010 133,1021 115,1040 96,1059 87,1082 87,1110 87,1141 98,1166 119,1185 140,1204 175,1213 224,1213 L 433,1212 C 482,1212 518,1203 539,1184 560,1165 570,1141 570,1110 570,1079 560,1055 539,1036 518,1017 482,1007 433,1007 L 401,1007 401,707 839,707 839,1007 807,1007 C 758,1007 723,1017 702,1036 681,1055 670,1079 670,1110 670,1141 681,1166 702,1185 723,1204 758,1213 807,1213 L 1016,1212 C 1065,1212 1101,1203 1122,1184 1143,1165 1153,1141 1153,1110 1153,1082 1144,1059 1126,1040 1107,1021 1080,1010 1044,1007 L 1044,205 C 1097,205 1131,200 1146,190 1179,169 1195,140 1195,102 1195,72 1185,48 1164,29 1143,10 1107,0 1058,0 L 807,0 C 758,0 723,10 702,29 681,48 670,72 670,103 670,133 681,158 702,177 723,196 758,205 807,205 L 839,205 Z"/>
   <glyph unicode="F" horiz-adv-x="1148" d="M 474,505 L 474,205 684,205 C 733,205 769,196 790,177 811,158 821,133 821,102 821,72 811,48 790,29 769,10 733,0 684,0 L 237,0 C 188,0 153,10 132,29 111,48 100,72 100,103 100,133 111,158 132,177 153,196 188,205 237,205 L 269,205 269,1007 237,1007 C 188,1007 153,1017 132,1036 111,1055 100,1079 100,1110 100,1141 111,1166 132,1185 153,1204 188,1213 237,1213 L 1202,1212 1202,899 C 1202,850 1193,816 1174,795 1155,774 1130,763 1099,763 1069,763 1045,773 1026,794 1007,815 997,850 997,899 L 997,1007 474,1007 474,710 654,710 C 654,763 659,798 669,813 690,846 719,862 757,862 787,862 812,852 831,831 850,810 859,774 859,725 L 859,489 C 859,440 850,405 831,384 812,363 787,352 756,352 719,352 690,368 669,401 659,416 654,451 654,505 Z"/>
   <glyph unicode="E" horiz-adv-x="1121" d="M 404,506 L 404,205 927,205 927,316 C 927,365 937,401 956,422 975,443 999,453 1030,453 1060,453 1085,443 1104,422 1123,401 1132,365 1132,316 L 1132,0 167,0 C 118,0 83,10 62,29 41,48 30,72 30,103 30,133 41,158 62,177 83,196 118,205 167,205 L 199,205 199,1007 167,1007 C 118,1007 83,1017 62,1036 41,1055 30,1079 30,1110 30,1141 41,1166 62,1185 83,1204 118,1213 167,1213 L 1087,1212 1087,900 C 1087,851 1078,817 1059,796 1040,775 1016,764 985,764 954,764 930,774 911,795 892,816 882,851 882,900 L 882,1007 404,1007 404,711 584,711 C 584,764 589,799 599,814 620,847 649,863 687,863 717,863 742,853 761,832 780,811 789,775 789,726 L 789,490 C 789,445 784,415 773,400 752,369 723,353 687,353 649,353 620,369 599,402 589,417 584,452 584,506 Z"/>
   <glyph unicode="D" horiz-adv-x="1121" d="M 156,205 L 156,1007 C 113,1008 81,1018 60,1037 39,1056 29,1080 29,1110 29,1141 40,1166 61,1185 82,1204 117,1213 166,1213 L 595,1212 C 662,1212 727,1200 791,1175 854,1150 905,1119 944,1081 973,1052 1004,1013 1036,963 1067,913 1091,863 1107,814 1123,765 1131,704 1131,633 L 1131,535 C 1131,448 1116,372 1087,305 1058,238 1019,183 972,141 924,98 879,67 837,47 770,16 684,0 578,0 L 166,0 C 117,0 82,10 61,29 40,48 29,72 29,103 29,133 40,158 61,177 82,196 113,206 156,205 Z M 361,205 L 579,205 C 660,205 722,217 763,240 817,271 858,310 885,357 912,404 926,466 926,541 L 926,638 C 926,703 914,759 889,808 850,884 807,936 759,965 710,993 650,1007 577,1007 L 361,1007 Z"/>
   <glyph unicode="C" horiz-adv-x="1120" d="M 936,1160 C 949,1177 963,1190 978,1199 993,1208 1009,1212 1026,1212 1056,1212 1081,1202 1100,1181 1119,1160 1128,1125 1128,1076 L 1128,902 C 1128,853 1119,818 1100,797 1081,776 1056,765 1026,765 999,765 977,773 960,788 943,803 931,832 923,874 918,902 909,924 895,939 868,969 830,993 781,1011 732,1029 682,1038 633,1038 572,1038 515,1025 464,998 413,971 367,928 328,868 289,808 269,737 269,654 L 269,521 C 269,422 305,340 377,274 448,208 548,175 675,175 751,175 815,185 868,206 899,218 931,242 966,277 987,298 1004,312 1016,319 1028,325 1042,328 1057,328 1084,328 1108,318 1129,297 1150,276 1160,252 1160,224 1160,196 1146,166 1118,134 1077,87 1025,51 961,24 875,-12 780,-30 676,-30 555,-30 445,-5 348,45 269,85 202,148 147,235 92,321 64,415 64,517 L 64,656 C 64,763 89,862 139,955 188,1047 257,1118 345,1168 433,1218 526,1243 625,1243 684,1243 740,1236 792,1223 843,1209 891,1188 936,1160 Z"/>
   <glyph unicode="B" horiz-adv-x="1203" d="M 196,205 L 196,1007 164,1007 C 115,1007 80,1017 59,1036 38,1055 27,1079 27,1110 27,1141 38,1166 59,1185 80,1204 115,1213 164,1213 L 678,1213 C 801,1213 899,1179 974,1111 1049,1042 1086,961 1086,867 1086,822 1077,780 1060,741 1043,702 1016,665 981,632 1046,593 1094,548 1127,497 1159,445 1175,386 1175,321 1175,269 1163,221 1140,176 1123,142 1101,115 1076,95 1042,67 1000,44 951,27 902,9 840,0 766,0 L 164,0 C 115,0 80,10 59,29 38,48 27,72 27,103 27,133 38,158 59,177 80,196 115,205 164,205 Z M 401,709 L 626,709 C 707,709 774,729 827,770 863,797 881,831 881,872 881,908 864,940 830,967 796,994 742,1007 668,1007 L 401,1007 Z M 401,205 L 755,205 C 838,205 897,217 931,242 957,261 970,287 970,322 970,363 944,404 893,444 842,484 768,504 672,504 L 401,504 Z"/>
   <glyph unicode="A" horiz-adv-x="1340" d="M 865,330 L 367,330 317,205 367,205 C 416,205 452,196 473,177 494,158 504,133 504,102 504,72 494,48 473,29 452,10 416,0 367,0 L 91,0 C 42,0 7,10 -15,29 -36,48 -46,72 -46,103 -46,134 -35,159 -13,178 9,197 45,206 96,205 L 418,1007 284,1007 C 235,1007 200,1017 179,1036 158,1055 147,1079 147,1110 147,1141 158,1166 179,1185 200,1204 235,1213 284,1213 L 727,1212 1135,205 C 1183,205 1215,200 1230,189 1261,167 1276,138 1276,102 1276,72 1266,48 1245,29 1224,10 1189,0 1140,0 L 864,0 C 815,0 780,10 759,29 738,48 727,72 727,103 727,133 738,158 759,177 780,196 815,205 864,205 L 914,205 Z M 780,535 L 615,941 449,535 Z"/>
   <glyph unicode="." horiz-adv-x="356" d="M 771,103 C 771,64 757,32 730,6 703,-20 665,-33 617,-33 569,-33 531,-20 504,6 477,32 463,64 463,103 463,142 477,174 504,200 531,226 569,239 617,239 665,239 703,226 730,200 757,174 771,142 771,103 Z"/>
   <glyph unicode="-" horiz-adv-x="902" d="M 1044,488 L 188,488 188,675 1044,675 Z"/>
   <glyph unicode="," horiz-adv-x="438" d="M 566,276 L 840,276 545,-280 C 528,-313 506,-329 480,-329 463,-329 448,-323 436,-312 423,-301 417,-288 417,-274 417,-264 419,-250 424,-233 Z"/>
   <glyph unicode=" " horiz-adv-x="1229"/>
  </font>
 </defs>
 <defs>
  <font id="EmbeddedFont_2" horiz-adv-x="2048">
   <font-face font-family="Liberation Sans embedded" units-per-em="2048" font-weight="normal" font-style="normal" ascent="1857" descent="437"/>
   <missing-glyph horiz-adv-x="2048" d="M 0,0 L 2047,0 2047,2047 0,2047 0,0 Z"/>
   <glyph unicode="x" horiz-adv-x="1012" d="M 801,0 L 510,444 217,0 23,0 408,556 41,1082 240,1082 510,661 778,1082 979,1082 612,558 1002,0 Z"/>
   <glyph unicode="u" horiz-adv-x="903" d="M 314,1082 L 314,396 C 314,325 321,269 335,230 349,191 371,162 402,145 433,128 478,119 537,119 624,119 692,149 742,208 792,267 817,350 817,455 L 817,1082 997,1082 997,231 C 997,105 999,28 1003,0 L 833,0 C 832,3 832,12 831,27 830,42 830,59 829,78 828,97 826,132 825,185 L 822,185 C 781,110 733,58 679,27 624,-5 557,-20 476,-20 357,-20 271,10 216,69 161,128 133,225 133,361 L 133,1082 Z"/>
   <glyph unicode="t" horiz-adv-x="548" d="M 554,8 C 495,-8 434,-16 372,-16 228,-16 156,66 156,229 L 156,951 31,951 31,1082 163,1082 216,1324 336,1324 336,1082 536,1082 536,951 336,951 336,268 C 336,216 345,180 362,159 379,138 408,127 450,127 474,127 509,132 554,141 Z"/>
   <glyph unicode="s" horiz-adv-x="902" d="M 950,299 C 950,197 912,118 835,63 758,8 650,-20 511,-20 376,-20 273,2 200,47 127,91 79,160 57,254 L 216,285 C 231,227 263,185 311,158 359,131 426,117 511,117 602,117 669,131 712,159 754,187 775,229 775,285 775,328 760,362 731,389 702,416 654,438 589,455 L 460,489 C 357,516 283,542 240,568 196,593 162,624 137,661 112,698 100,743 100,796 100,895 135,970 206,1022 276,1073 378,1099 513,1099 632,1099 727,1078 798,1036 868,994 912,927 931,834 L 769,814 C 759,862 732,899 689,925 645,950 586,963 513,963 432,963 372,951 333,926 294,901 275,864 275,814 275,783 283,758 299,738 315,718 339,701 370,687 401,673 467,654 568,629 663,605 732,583 774,563 816,542 849,520 874,495 898,470 917,442 930,410 943,377 950,340 950,299 Z"/>
   <glyph unicode="r" horiz-adv-x="547" d="M 142,0 L 142,830 C 142,906 140,990 136,1082 L 306,1082 C 311,959 314,886 314,861 L 318,861 C 347,954 380,1017 417,1051 454,1085 507,1102 575,1102 599,1102 623,1099 648,1092 L 648,927 C 624,934 592,937 552,937 477,937 420,905 381,841 342,776 322,684 322,564 L 322,0 Z"/>
   <glyph unicode="p" horiz-adv-x="957" d="M 1053,546 C 1053,169 920,-20 655,-20 488,-20 376,43 319,168 L 314,168 C 317,163 318,106 318,-2 L 318,-425 138,-425 138,861 C 138,972 136,1046 132,1082 L 306,1082 C 307,1079 308,1070 309,1054 310,1037 312,1012 314,978 315,944 316,921 316,908 L 320,908 C 352,975 394,1024 447,1055 500,1086 569,1101 655,1101 788,1101 888,1056 954,967 1020,878 1053,737 1053,546 Z M 864,542 C 864,693 844,800 803,865 762,930 698,962 609,962 538,962 482,947 442,917 401,887 371,840 350,777 329,713 318,630 318,528 318,386 341,281 386,214 431,147 505,113 607,113 696,113 762,146 803,212 844,277 864,387 864,542 Z"/>
   <glyph unicode="o" horiz-adv-x="984" d="M 1053,542 C 1053,353 1011,212 928,119 845,26 724,-20 565,-20 407,-20 288,28 207,125 126,221 86,360 86,542 86,915 248,1102 571,1102 736,1102 858,1057 936,966 1014,875 1053,733 1053,542 Z M 864,542 C 864,691 842,800 798,868 753,935 679,969 574,969 469,969 393,935 346,866 299,797 275,689 275,542 275,399 298,292 345,221 391,149 464,113 563,113 671,113 748,148 795,217 841,286 864,395 864,542 Z"/>
   <glyph unicode="n" horiz-adv-x="903" d="M 825,0 L 825,686 C 825,757 818,813 804,852 790,891 768,920 737,937 706,954 661,963 602,963 515,963 447,933 397,874 347,815 322,732 322,627 L 322,0 142,0 142,851 C 142,977 140,1054 136,1082 L 306,1082 C 307,1079 307,1070 308,1055 309,1040 310,1024 311,1005 312,986 313,950 314,897 L 317,897 C 358,972 406,1025 461,1056 515,1087 582,1102 663,1102 782,1102 869,1073 924,1014 979,955 1006,857 1006,721 L 1006,0 Z"/>
   <glyph unicode="m" horiz-adv-x="1476" d="M 768,0 L 768,686 C 768,791 754,863 725,903 696,943 645,963 570,963 493,963 433,934 388,875 343,816 321,734 321,627 L 321,0 142,0 142,851 C 142,977 140,1054 136,1082 L 306,1082 C 307,1079 307,1070 308,1055 309,1040 310,1024 311,1005 312,986 313,950 314,897 L 317,897 C 356,974 400,1027 450,1057 500,1087 561,1102 633,1102 715,1102 780,1086 828,1053 875,1020 908,968 927,897 L 930,897 C 967,970 1013,1022 1066,1054 1119,1086 1183,1102 1258,1102 1367,1102 1447,1072 1497,1013 1546,954 1571,856 1571,721 L 1571,0 1393,0 1393,686 C 1393,791 1379,863 1350,903 1321,943 1270,963 1195,963 1116,963 1055,934 1012,876 968,817 946,734 946,627 L 946,0 Z"/>
   <glyph unicode="l" horiz-adv-x="192" d="M 138,0 L 138,1484 318,1484 318,0 Z"/>
   <glyph unicode="i" horiz-adv-x="192" d="M 137,1312 L 137,1484 317,1484 317,1312 Z M 137,0 L 137,1082 317,1082 317,0 Z"/>
   <glyph unicode="g" horiz-adv-x="930" d="M 548,-425 C 430,-425 336,-402 266,-356 196,-309 151,-243 131,-158 L 312,-132 C 324,-182 351,-221 392,-248 433,-275 486,-288 553,-288 732,-288 822,-183 822,27 L 822,201 820,201 C 786,132 739,80 680,45 621,10 551,-8 472,-8 339,-8 242,36 180,124 117,212 86,350 86,539 86,730 120,872 187,963 254,1054 355,1099 492,1099 569,1099 635,1082 692,1047 748,1012 791,962 822,897 L 824,897 C 824,917 825,952 828,1001 831,1050 833,1077 836,1082 L 1007,1082 C 1003,1046 1001,971 1001,858 L 1001,31 C 1001,-273 850,-425 548,-425 Z M 822,541 C 822,629 810,705 786,769 762,832 728,881 685,915 641,948 591,965 536,965 444,965 377,932 335,865 293,798 272,690 272,541 272,393 292,287 331,222 370,157 438,125 533,125 590,125 640,142 684,175 728,208 762,256 786,319 810,381 822,455 822,541 Z"/>
   <glyph unicode="e" horiz-adv-x="984" d="M 276,503 C 276,379 302,283 353,216 404,149 479,115 578,115 656,115 719,131 766,162 813,193 844,233 861,281 L 1019,236 C 954,65 807,-20 578,-20 418,-20 296,28 213,123 129,218 87,360 87,548 87,727 129,864 213,959 296,1054 416,1102 571,1102 889,1102 1048,910 1048,527 L 1048,503 Z M 862,641 C 852,755 823,838 775,891 727,943 658,969 568,969 481,969 412,940 361,882 310,823 282,743 278,641 Z"/>
   <glyph unicode="d" horiz-adv-x="930" d="M 821,174 C 788,105 744,55 689,25 634,-5 565,-20 484,-20 347,-20 247,26 183,118 118,210 86,349 86,536 86,913 219,1102 484,1102 566,1102 634,1087 689,1057 744,1027 788,979 821,914 L 823,914 821,1035 821,1484 1001,1484 1001,223 C 1001,110 1003,36 1007,0 L 835,0 C 833,11 831,35 829,74 826,113 825,146 825,174 Z M 275,542 C 275,391 295,282 335,217 375,152 440,119 530,119 632,119 706,154 752,225 798,296 821,405 821,554 821,697 798,802 752,869 706,936 633,969 532,969 441,969 376,936 336,869 295,802 275,693 275,542 Z"/>
   <glyph unicode="c" horiz-adv-x="902" d="M 275,546 C 275,402 298,295 343,226 388,157 457,122 548,122 612,122 666,139 709,174 752,209 778,262 788,334 L 970,322 C 956,218 912,135 837,73 762,11 668,-20 553,-20 402,-20 286,28 207,124 127,219 87,359 87,542 87,724 127,863 207,959 287,1054 402,1102 551,1102 662,1102 754,1073 827,1016 900,959 945,880 964,779 L 779,765 C 770,825 746,873 708,908 670,943 616,961 546,961 451,961 382,929 339,866 296,803 275,696 275,546 Z"/>
   <glyph unicode="b" horiz-adv-x="957" d="M 1053,546 C 1053,169 920,-20 655,-20 573,-20 505,-5 451,25 396,54 352,102 318,168 L 316,168 C 316,147 315,116 312,74 309,31 307,7 306,0 L 132,0 C 136,36 138,110 138,223 L 138,1484 318,1484 318,1061 C 318,1018 317,967 314,908 L 318,908 C 351,977 396,1027 451,1057 506,1087 574,1102 655,1102 792,1102 892,1056 957,964 1021,872 1053,733 1053,546 Z M 864,540 C 864,691 844,800 804,865 764,930 699,963 609,963 508,963 434,928 388,859 341,790 318,680 318,529 318,387 341,282 386,215 431,147 505,113 607,113 698,113 763,147 804,214 844,281 864,389 864,540 Z"/>
   <glyph unicode="a" horiz-adv-x="1066" d="M 414,-20 C 305,-20 224,9 169,66 114,123 87,202 87,302 87,414 124,500 198,560 271,620 390,652 554,656 L 797,660 797,719 C 797,807 778,870 741,908 704,946 645,965 565,965 484,965 426,951 389,924 352,897 330,853 323,793 L 135,810 C 166,1005 310,1102 569,1102 705,1102 807,1071 876,1009 945,946 979,856 979,738 L 979,272 C 979,219 986,179 1000,152 1014,125 1041,111 1080,111 1097,111 1117,113 1139,118 L 1139,6 C 1094,-5 1047,-10 1000,-10 933,-10 885,8 855,43 824,78 807,132 803,207 L 797,207 C 751,124 698,66 637,32 576,-3 501,-20 414,-20 Z M 455,115 C 521,115 580,130 631,160 682,190 723,231 753,284 782,336 797,390 797,445 L 797,534 600,530 C 515,529 451,520 408,504 364,488 330,463 307,430 284,397 272,353 272,299 272,240 288,195 320,163 351,131 396,115 455,115 Z"/>
   <glyph unicode="S" horiz-adv-x="1203" d="M 1272,389 C 1272,259 1221,158 1120,87 1018,16 875,-20 690,-20 347,-20 148,99 93,338 L 278,375 C 299,290 345,228 414,189 483,149 578,129 697,129 820,129 916,150 983,193 1050,235 1083,297 1083,379 1083,425 1073,462 1052,491 1031,520 1001,543 963,562 925,581 880,596 827,609 774,622 716,635 652,650 541,675 456,699 399,724 341,749 295,776 262,807 229,837 203,872 186,913 168,954 159,1000 159,1053 159,1174 205,1267 298,1332 390,1397 522,1430 694,1430 854,1430 976,1406 1061,1357 1146,1308 1205,1224 1239,1106 L 1051,1073 C 1030,1148 991,1202 933,1236 875,1269 795,1286 692,1286 579,1286 493,1267 434,1230 375,1193 345,1137 345,1063 345,1020 357,984 380,956 403,927 436,903 479,884 522,864 609,840 738,811 781,801 825,791 868,781 911,770 952,758 991,744 1030,729 1067,712 1102,693 1136,674 1166,650 1191,622 1216,594 1236,561 1251,523 1265,485 1272,440 1272,389 Z"/>
   <glyph unicode="Q" horiz-adv-x="1421" d="M 1495,711 C 1495,512 1445,349 1345,221 1245,93 1106,17 928,-6 955,-90 991,-151 1036,-188 1080,-225 1136,-244 1204,-244 1241,-244 1279,-240 1319,-231 L 1319,-365 C 1257,-380 1198,-387 1141,-387 1040,-387 958,-359 893,-302 828,-245 774,-149 733,-16 601,-9 487,24 392,85 296,145 223,229 173,337 122,444 97,569 97,711 97,936 159,1113 282,1240 405,1367 577,1430 797,1430 940,1430 1065,1402 1170,1345 1275,1288 1356,1205 1412,1096 1467,987 1495,859 1495,711 Z M 1300,711 C 1300,886 1256,1024 1169,1124 1081,1224 957,1274 797,1274 636,1274 511,1225 423,1126 335,1027 291,889 291,711 291,534 336,394 425,291 514,187 637,135 795,135 958,135 1083,185 1170,286 1257,386 1300,528 1300,711 Z"/>
   <glyph unicode="D" horiz-adv-x="1230" d="M 1381,719 C 1381,574 1353,447 1296,338 1239,229 1159,145 1055,87 951,29 831,0 695,0 L 168,0 168,1409 634,1409 C 873,1409 1057,1349 1187,1230 1316,1110 1381,940 1381,719 Z M 1189,719 C 1189,894 1141,1027 1046,1119 950,1210 811,1256 630,1256 L 359,1256 359,153 673,153 C 776,153 867,176 946,221 1024,266 1084,332 1126,417 1168,502 1189,603 1189,719 Z"/>
   <glyph unicode="C" horiz-adv-x="1339" d="M 792,1274 C 636,1274 515,1224 428,1124 341,1023 298,886 298,711 298,538 343,400 434,295 524,190 646,137 800,137 997,137 1146,235 1245,430 L 1401,352 C 1343,231 1262,138 1157,75 1052,12 930,-20 791,-20 649,-20 526,10 423,69 319,128 240,212 186,322 131,431 104,561 104,711 104,936 165,1112 286,1239 407,1366 575,1430 790,1430 940,1430 1065,1401 1166,1342 1267,1283 1341,1196 1388,1081 L 1207,1021 C 1174,1103 1122,1166 1050,1209 977,1252 891,1274 792,1274 Z"/>
   <glyph unicode="A" horiz-adv-x="1367" d="M 1167,0 L 1006,412 364,412 202,0 4,0 579,1409 796,1409 1362,0 Z M 685,1265 L 676,1237 C 659,1182 635,1111 602,1024 L 422,561 949,561 768,1026 C 749,1072 731,1124 712,1182 Z"/>
   <glyph unicode="6" horiz-adv-x="984" d="M 1049,461 C 1049,312 1009,195 928,109 847,23 736,-20 594,-20 435,-20 314,39 230,157 146,275 104,447 104,672 104,916 148,1103 235,1234 322,1365 447,1430 608,1430 821,1430 955,1334 1010,1143 L 838,1112 C 803,1227 725,1284 606,1284 503,1284 424,1236 368,1141 311,1045 283,906 283,725 316,786 362,832 421,864 480,895 548,911 625,911 755,911 858,870 935,789 1011,708 1049,598 1049,461 Z M 866,453 C 866,555 841,634 791,689 741,744 671,772 582,772 498,772 430,748 379,699 327,650 301,582 301,496 301,387 328,298 382,229 435,160 504,125 588,125 675,125 743,154 792,213 841,271 866,351 866,453 Z"/>
   <glyph unicode="1" horiz-adv-x="929" d="M 156,0 L 156,153 515,153 515,1237 197,1010 197,1180 530,1409 696,1409 696,153 1039,153 1039,0 Z"/>
   <glyph unicode="-" horiz-adv-x="520" d="M 91,464 L 91,624 591,624 591,464 Z"/>
   <glyph unicode=" " horiz-adv-x="574"/>
  </font>
 </defs>
 <defs>
  <font id="EmbeddedFont_3" horiz-adv-x="2048">
   <font-face font-family="Liberation Sans embedded" units-per-em="2048" font-weight="normal" font-style="italic" ascent="1857" descent="437"/>
   <missing-glyph horiz-adv-x="2048" d="M 0,0 L 2047,0 2047,2047 0,2047 0,0 Z"/>
   <glyph unicode="t" horiz-adv-x="574" d="M 275,-20 C 218,-20 174,-3 142,31 109,65 93,110 93,166 93,203 98,246 108,296 L 234,951 109,951 135,1082 262,1082 367,1324 487,1324 440,1082 640,1082 614,951 414,951 289,306 C 281,266 277,234 277,211 277,152 307,123 367,123 395,123 428,128 467,137 L 448,4 C 382,-12 324,-20 275,-20 Z"/>
   <glyph unicode="s" horiz-adv-x="984" d="M 907,317 C 907,209 866,126 783,68 700,9 581,-20 425,-20 309,-20 217,-1 149,39 80,78 32,139 5,223 L 152,279 C 174,220 208,178 255,151 301,124 363,111 441,111 536,111 609,127 658,160 707,192 732,239 732,301 732,342 715,377 681,405 647,432 575,463 465,497 380,525 316,552 273,579 230,606 198,637 175,673 152,708 141,750 141,797 141,894 180,968 257,1021 334,1073 443,1099 584,1099 820,1099 953,1014 982,844 L 819,819 C 804,872 777,910 736,933 695,956 641,968 572,968 489,968 426,955 382,929 337,902 315,865 315,817 315,789 322,765 336,746 350,727 370,710 397,695 423,680 484,657 579,627 664,600 728,573 771,546 814,519 847,486 871,449 895,412 907,368 907,317 Z"/>
   <glyph unicode="r" horiz-adv-x="739" d="M 718,938 C 689,947 659,951 628,951 558,951 495,914 439,841 382,768 344,675 324,564 L 214,0 34,0 196,830 221,968 239,1082 409,1082 374,861 378,861 C 422,950 465,1012 508,1048 551,1084 600,1102 656,1102 687,1102 718,1097 751,1088 Z"/>
   <glyph unicode="p" horiz-adv-x="1148" d="M 554,-20 C 472,-20 405,-3 354,32 302,67 265,115 244,178 L 239,178 C 239,171 236,149 231,113 225,77 191,-102 128,-425 L -51,-425 198,861 C 213,935 225,1009 233,1082 L 400,1082 C 400,1064 398,1037 394,1000 389,963 386,936 383,921 L 387,921 C 436,984 487,1030 541,1059 595,1088 662,1102 741,1102 846,1102 927,1071 986,1008 1044,945 1073,858 1073,748 1073,613 1053,482 1012,355 971,228 913,133 839,72 764,11 669,-20 554,-20 Z M 689,963 C 623,963 567,950 520,923 473,896 433,855 400,801 367,746 342,678 323,597 304,515 295,442 295,377 295,294 316,229 359,183 401,136 460,113 535,113 618,113 683,138 731,189 779,239 817,319 844,429 871,538 885,634 885,716 885,798 869,860 838,901 807,942 757,963 689,963 Z"/>
   <glyph unicode="o" horiz-adv-x="1038" d="M 1074,683 C 1074,596 1061,506 1034,413 1007,319 969,240 920,175 870,110 809,61 737,29 665,-4 583,-20 491,-20 360,-20 257,19 181,98 105,177 67,284 67,419 70,555 94,676 141,781 188,886 252,966 335,1020 418,1074 520,1101 642,1101 782,1101 889,1065 963,992 1037,919 1074,816 1074,683 Z M 888,683 C 888,874 805,969 640,969 550,969 478,946 424,900 369,853 327,783 297,689 267,595 252,504 252,416 252,317 273,242 316,191 359,139 421,113 502,113 571,113 626,125 668,148 709,171 746,207 777,256 808,305 834,367 854,443 873,519 885,599 888,683 Z"/>
   <glyph unicode="n" horiz-adv-x="1039" d="M 717,0 L 843,645 C 855,704 861,754 861,795 861,906 801,962 682,962 598,962 524,930 460,866 396,802 353,715 332,606 L 214,0 34,0 200,851 C 213,914 226,991 239,1082 L 409,1082 C 409,1075 406,1049 399,1005 392,960 386,924 381,897 L 384,897 C 439,974 495,1027 551,1057 606,1086 672,1101 749,1101 848,1101 922,1077 972,1028 1021,979 1046,909 1046,817 1046,774 1039,720 1025,653 L 898,0 Z"/>
   <glyph unicode="m" horiz-adv-x="1585" d="M 660,0 L 784,634 C 801,717 809,775 809,808 809,858 796,896 771,923 746,949 704,962 647,962 570,962 502,929 445,863 387,797 349,711 331,604 L 213,0 34,0 200,851 C 213,914 226,991 239,1082 L 409,1082 C 409,1075 406,1049 399,1005 392,960 386,924 381,897 L 384,897 C 433,973 482,1026 531,1056 580,1086 638,1101 706,1101 787,1101 851,1081 898,1042 945,1002 974,944 983,869 1038,956 1093,1016 1147,1050 1200,1084 1262,1101 1331,1101 1421,1101 1490,1077 1539,1028 1587,979 1611,909 1611,817 1611,774 1604,720 1590,653 L 1463,0 1285,0 1409,634 C 1426,717 1434,775 1434,808 1434,858 1421,896 1396,923 1371,949 1329,962 1272,962 1195,962 1127,930 1070,865 1013,800 975,714 956,607 L 838,0 Z"/>
   <glyph unicode="k" horiz-adv-x="1094" d="M 721,0 L 453,502 285,378 213,0 34,0 322,1484 502,1484 323,567 527,757 888,1082 1110,1082 580,617 916,0 Z"/>
   <glyph unicode="i" horiz-adv-x="493" d="M 287,1312 L 321,1484 501,1484 467,1312 Z M 33,0 L 243,1082 423,1082 212,0 Z"/>
   <glyph unicode="e" horiz-adv-x="1011" d="M 256,503 C 252,480 249,442 247,390 247,301 269,233 314,186 358,139 425,115 514,115 579,115 637,131 690,163 743,195 784,239 813,294 L 951,231 C 902,144 841,80 766,40 691,0 600,-20 493,-20 359,-20 255,17 181,92 106,166 69,270 69,405 69,539 93,659 140,766 187,872 254,955 340,1014 426,1073 523,1102 630,1102 767,1102 873,1068 949,999 1025,930 1063,833 1063,708 1063,638 1055,570 1039,503 Z M 880,641 L 884,713 C 884,796 863,859 820,903 777,947 715,969 634,969 545,969 470,941 409,884 348,827 305,746 280,641 Z"/>
   <glyph unicode="W" horiz-adv-x="1940" d="M 1406,0 L 1183,0 1112,895 C 1103,1078 1097,1186 1096,1219 1045,1086 1000,978 961,895 L 542,0 319,0 177,1409 374,1409 453,514 C 461,411 466,295 469,168 522,293 565,394 600,470 634,546 782,859 1043,1409 L 1226,1409 1301,532 C 1310,429 1316,308 1318,168 L 1334,203 C 1366,280 1392,341 1412,387 1432,433 1592,774 1893,1409 L 2094,1409 Z"/>
   <glyph unicode="S" horiz-adv-x="1312" d="M 616,-20 C 450,-20 321,10 230,69 138,128 81,217 58,338 L 235,375 C 253,289 293,227 355,188 417,149 509,130 630,130 776,130 883,152 950,196 1017,239 1051,306 1051,396 1051,441 1041,477 1022,504 1003,531 970,555 923,577 876,598 796,625 682,657 568,688 483,721 427,754 370,787 328,826 299,873 270,920 255,976 255,1041 255,1162 306,1258 409,1327 511,1396 649,1430 824,1430 971,1430 1088,1405 1177,1354 1266,1303 1321,1229 1344,1132 L 1171,1081 C 1149,1151 1110,1203 1053,1236 996,1269 919,1286 823,1286 572,1286 447,1207 447,1050 447,1010 456,977 473,952 490,927 518,905 557,886 596,867 673,841 789,810 919,774 1013,739 1070,706 1127,673 1170,632 1201,585 1231,537 1246,478 1246,408 1246,271 1194,165 1091,91 988,17 829,-20 616,-20 Z"/>
   <glyph unicode="P" horiz-adv-x="1312" d="M 852,1409 C 1006,1409 1128,1374 1218,1305 1308,1236 1353,1141 1353,1020 1353,873 1302,758 1201,675 1099,591 960,549 784,549 L 360,549 254,0 63,0 336,1409 Z M 390,700 L 777,700 C 1032,700 1159,804 1159,1011 1159,1090 1133,1151 1080,1193 1027,1235 950,1256 847,1256 L 498,1256 Z"/>
   <glyph unicode="C" horiz-adv-x="1394" d="M 1358,337 C 1274,212 1179,121 1072,65 965,8 841,-20 700,-20 579,-20 475,4 386,53 297,101 229,170 183,259 136,348 113,452 113,569 113,733 148,881 218,1014 288,1147 385,1249 510,1322 634,1394 773,1430 926,1430 1071,1430 1193,1400 1293,1340 1392,1279 1458,1194 1490,1085 L 1310,1030 C 1286,1105 1240,1164 1171,1208 1102,1252 1017,1274 916,1274 793,1274 685,1245 592,1186 499,1127 427,1044 377,937 327,830 302,706 302,566 302,433 338,328 411,251 484,174 584,135 713,135 812,135 904,160 989,209 1074,258 1150,330 1215,426 Z"/>
   <glyph unicode=" " horiz-adv-x="574"/>
  </font>
 </defs>
 <defs>
  <font id="EmbeddedFont_4" horiz-adv-x="2048">
   <font-face font-family="Liberation Sans embedded" units-per-em="2048" font-weight="bold" font-style="normal" ascent="1857" descent="437"/>
   <missing-glyph horiz-adv-x="2048" d="M 0,0 L 2047,0 2047,2047 0,2047 0,0 Z"/>
   <glyph unicode=" " horiz-adv-x="574"/>
  </font>
 </defs>
 <defs class="TextShapeIndex">
  <g ooo:slide="id1" ooo:id-list="id3 id4 id5 id6 id7 id8 id9 id10 id11 id12"/>
 </defs>
 <defs class="EmbeddedBulletChars">
  <g id="bullet-char-template-57356" transform="scale(0.00048828125,-0.00048828125)">
   <path d="M 580,1141 L 1163,571 580,0 -4,571 580,1141 Z"/>
  </g>
  <g id="bullet-char-template-57354" transform="scale(0.00048828125,-0.00048828125)">
   <path d="M 8,1128 L 1137,1128 1137,0 8,0 8,1128 Z"/>
  </g>
  <g id="bullet-char-template-10146" transform="scale(0.00048828125,-0.00048828125)">
   <path d="M 174,0 L 602,739 174,1481 1456,739 174,0 Z M 1358,739 L 309,1346 659,739 1358,739 Z"/>
  </g>
  <g id="bullet-char-template-10132" transform="scale(0.00048828125,-0.00048828125)">
   <path d="M 2015,739 L 1276,0 717,0 1260,543 174,543 174,936 1260,936 717,1481 1274,1481 2015,739 Z"/>
  </g>
  <g id="bullet-char-template-10007" transform="scale(0.00048828125,-0.00048828125)">
   <path d="M 0,-2 C -7,14 -16,27 -25,37 L 356,567 C 262,823 215,952 215,954 215,979 228,992 255,992 264,992 276,990 289,987 310,991 331,999 354,1012 L 381,999 492,748 772,1049 836,1024 860,1049 C 881,1039 901,1025 922,1006 886,937 835,863 770,784 769,783 710,716 594,584 L 774,223 C 774,196 753,168 711,139 L 727,119 C 717,90 699,76 672,76 641,76 570,178 457,381 L 164,-76 C 142,-110 111,-127 72,-127 30,-127 9,-110 8,-76 1,-67 -2,-52 -2,-32 -2,-23 -1,-13 0,-2 Z"/>
  </g>
  <g id="bullet-char-template-10004" transform="scale(0.00048828125,-0.00048828125)">
   <path d="M 285,-33 C 182,-33 111,30 74,156 52,228 41,333 41,471 41,549 55,616 82,672 116,743 169,778 240,778 293,778 328,747 346,684 L 369,508 C 377,444 397,411 428,410 L 1163,1116 C 1174,1127 1196,1133 1229,1133 1271,1133 1292,1118 1292,1087 L 1292,965 C 1292,929 1282,901 1262,881 L 442,47 C 390,-6 338,-33 285,-33 Z"/>
  </g>
  <g id="bullet-char-template-9679" transform="scale(0.00048828125,-0.00048828125)">
   <path d="M 813,0 C 632,0 489,54 383,161 276,268 223,411 223,592 223,773 276,916 383,1023 489,1130 632,1184 813,1184 992,1184 1136,1130 1245,1023 1353,916 1407,772 1407,592 1407,412 1353,268 1245,161 1136,54 992,0 813,0 Z"/>
  </g>
  <g id="bullet-char-template-8226" transform="scale(0.00048828125,-0.00048828125)">
   <path d="M 346,457 C 273,457 209,483 155,535 101,586 74,649 74,723 74,796 101,859 155,911 209,963 273,989 346,989 419,989 480,963 531,910 582,859 608,796 608,723 608,648 583,586 532,535 482,483 420,457 346,457 Z"/>
  </g>
  <g id="bullet-char-template-8211" transform="scale(0.00048828125,-0.00048828125)">
   <path d="M -4,459 L 1135,459 1135,606 -4,606 -4,459 Z"/>
  </g>
  <g id="bullet-char-template-61548" transform="scale(0.00048828125,-0.00048828125)">
   <path d="M 173,740 C 173,903 231,1043 346,1159 462,1274 601,1332 765,1332 928,1332 1067,1274 1183,1159 1299,1043 1357,903 1357,740 1357,577 1299,437 1183,322 1067,206 928,148 765,148 601,148 462,206 346,322 231,437 173,577 173,740 Z"/>
  </g>
 </defs>
 <g>
  <g id="id2" class="Master_Slide">
   <g id="bg-id2" class="Background"/>
   <g id="bo-id2" class="BackgroundObjects"/>
  </g>
 </g>
 <g class="SlideGroup">
  <g>
   <g id="container-id1">
    <g id="id1" class="Slide" clip-path="url(#presentation_clip_path)">
     <g class="Page">
      <g class="Group">
       <g class="com.sun.star.drawing.TextShape">
        <g id="id3">
         <rect class="BoundingBox" stroke="none" fill="none" x="991" y="1380" width="12574" height="5876"/>
         <text class="TextShape"><tspan class="TextParagraph" font-family="Liberation Sans, sans-serif" font-size="494px" font-style="italic" font-weight="400"><tspan class="TextPosition" x="4799" y="1954"><tspan fill="rgb(0,132,209)" stroke="none">Component Properties</tspan></tspan></tspan><tspan class="TextParagraph" font-family="Liberation Sans, sans-serif" font-size="494px" font-style="italic" font-weight="400"><tspan class="TextPosition" x="3508" y="2509"><tspan fill="rgb(0,132,209)" stroke="none">See</tspan><tspan font-style="normal" font-weight="700" fill="rgb(0,132,209)" stroke="none"> </tspan><tspan font-family="Courier New" font-style="normal" font-weight="700" fill="rgb(0,132,209)" stroke="none">data_src_qadc-spec.xml</tspan></tspan></tspan><tspan class="TextParagraph" font-family="Courier New" font-size="494px" font-weight="700"><tspan class="TextPosition" x="5055" y="3627"><tspan fill="rgb(0,132,209)" stroke="none">ADC_WIDTH_BITS, </tspan></tspan><tspan class="TextPosition" x="2981" y="4186"><tspan fill="rgb(0,132,209)" stroke="none">ADC_INPUT_IS_LSB_OF_OUT_PORT,</tspan></tspan></tspan><tspan class="TextParagraph" font-family="Courier New" font-size="494px" font-weight="700"><tspan class="TextPosition" x="3574" y="4745"><tspan fill="rgb(0,132,209)" stroke="none">clr_overrun_sticky_error,</tspan></tspan></tspan><tspan class="TextParagraph" font-family="Courier New" font-size="494px" font-weight="700"><tspan class="TextPosition" x="4166" y="5304"><tspan fill="rgb(0,132,209)" stroke="none">overrun_sticky_error,</tspan></tspan></tspan><tspan class="TextParagraph" font-family="Courier New" font-size="494px" font-weight="700"><tspan class="TextPosition" x="2240" y="5863"><tspan fill="rgb(0,132,209)" stroke="none">samp_count_before_first_samp_drop,</tspan></tspan></tspan><tspan class="TextParagraph" font-family="Courier New" font-size="494px" font-weight="700"><tspan class="TextPosition" x="4611" y="6422"><tspan fill="rgb(0,132,209)" stroke="none">num_dropped_samps,</tspan></tspan></tspan><tspan class="TextParagraph" font-family="Courier New" font-size="494px" font-weight="700"><tspan class="TextPosition" x="2981" y="6981"><tspan fill="rgb(0,132,209)" stroke="none">suppress_discontinuity_opcode</tspan></tspan></tspan></text>
        </g>
       </g>
       <g class="Group">
        <g class="com.sun.star.drawing.CustomShape">
         <g id="id4">
          <rect class="BoundingBox" stroke="none" fill="none" x="9052" y="9413" width="9655" height="6353"/>
          <path fill="rgb(114,159,207)" stroke="none" d="M 13879,15764 L 9053,15764 9053,9414 18705,9414 18705,15764 13879,15764 Z"/>
          <path fill="none" stroke="rgb(52,101,164)" d="M 13879,15764 L 9053,15764 9053,9414 18705,9414 18705,15764 13879,15764 Z"/>
         </g>
        </g>
        <g class="com.sun.star.drawing.TextShape">
         <g id="id5">
          <rect class="BoundingBox" stroke="none" fill="none" x="10389" y="11841" width="7043" height="1674"/>
          <text class="TextShape"><tspan class="TextParagraph" font-family="Liberation Sans, sans-serif" font-size="635px" font-weight="400"><tspan class="TextPosition" x="11144" y="12542"><tspan fill="rgb(255,255,255)" stroke="none">Data Source QADC</tspan></tspan></tspan></text>
         </g>
        </g>
        <g class="com.sun.star.drawing.LineShape">
         <g id="id6">
          <rect class="BoundingBox" stroke="none" fill="none" x="3403" y="12566" width="5717" height="301"/>
          <path fill="none" stroke="rgb(0,0,0)" d="M 3404,12716 L 8689,12716"/>
          <path fill="rgb(0,0,0)" stroke="none" d="M 9119,12716 L 8669,12566 8669,12866 9119,12716 Z"/>
         </g>
        </g>
        <g class="com.sun.star.drawing.LineShape">
         <g id="id7">
          <rect class="BoundingBox" stroke="none" fill="none" x="18770" y="12566" width="5717" height="301"/>
          <path fill="none" stroke="rgb(0,0,0)" d="M 18771,12716 L 24056,12716"/>
          <path fill="rgb(0,0,0)" stroke="none" d="M 24486,12716 L 24036,12566 24036,12866 24486,12716 Z"/>
         </g>
        </g>
        <g class="com.sun.star.drawing.TextShape">
         <g id="id8">
          <rect class="BoundingBox" stroke="none" fill="none" x="18263" y="11094" width="6478" height="3807"/>
          <text class="TextShape"><tspan class="TextParagraph" font-family="Courier New" font-size="635px" font-weight="700"><tspan class="TextPosition" x="20930" y="12459"><tspan fill="rgb(0,0,0)" stroke="none">out</tspan></tspan></tspan><tspan class="TextParagraph" font-family="Liberation Sans, sans-serif" font-size="635px" font-weight="400"><tspan class="TextPosition" x="19442" y="13226"><tspan fill="rgb(0,0,0)" stroke="none">16-bit complex </tspan></tspan><tspan class="TextPosition" x="20323" y="13937"><tspan fill="rgb(0,0,0)" stroke="none">samples</tspan></tspan></tspan></text>
         </g>
        </g>
        <g class="com.sun.star.drawing.LineShape">
         <g id="id9">
          <rect class="BoundingBox" stroke="none" fill="none" x="17473" y="7382" width="308" height="1906"/>
          <path fill="none" stroke="rgb(114,159,207)" d="M 17627,7819 L 17623,8857"/>
          <path fill="rgb(114,159,207)" stroke="none" d="M 17628,7382 L 17474,7839 17779,7840 17628,7382 Z"/>
          <path fill="rgb(114,159,207)" stroke="none" d="M 17622,9287 L 17773,8837 17473,8837 17622,9287 Z"/>
         </g>
        </g>
        <g class="com.sun.star.drawing.TextShape">
         <g id="id10">
          <rect class="BoundingBox" stroke="none" fill="none" x="12802" y="3493" width="11431" height="3636"/>
          <text class="TextShape"><tspan class="TextParagraph" font-family="Liberation Sans, sans-serif" font-size="494px" font-style="italic" font-weight="400"><tspan class="TextPosition" x="16519" y="4067"><tspan fill="rgb(0,132,209)" stroke="none">Worker Properties</tspan></tspan></tspan><tspan class="TextParagraph" font-family="Liberation Sans, sans-serif" font-size="494px" font-style="italic" font-weight="400"><tspan class="TextPosition" x="15488" y="4622"><tspan fill="rgb(0,132,209)" stroke="none">See </tspan><tspan font-family="Courier New" font-style="normal" font-weight="700" fill="rgb(0,132,209)" stroke="none">data_src_qadc.xml</tspan></tspan></tspan><tspan class="TextParagraph" font-family="Courier New" font-size="494px" font-weight="700"><tspan class="TextPosition" x="13628" y="5736"><tspan fill="rgb(0,132,209)" stroke="none">send_eof, num_samples_before_eof, </tspan></tspan><tspan class="TextPosition" x="14813" y="6295"><tspan fill="rgb(0,132,209)" stroke="none">DATA_PIPE_LATENCY_CYCLES, </tspan></tspan><tspan class="TextPosition" x="15702" y="6854"><tspan fill="rgb(0,132,209)" stroke="none">OUT_PORT_DATA_WIDTH</tspan></tspan></tspan></text>
         </g>
        </g>
        <g class="com.sun.star.drawing.TextShape">
         <g id="id11">
          <rect class="BoundingBox" stroke="none" fill="none" x="2521" y="11083" width="6478" height="3825"/>
          <text class="TextShape"><tspan class="TextParagraph" font-family="Courier New" font-size="635px" font-weight="700"><tspan class="TextPosition" x="5188" y="12448"><tspan fill="rgb(0,0,0)" stroke="none">dev</tspan></tspan></tspan><tspan class="TextParagraph" font-family="Courier New" font-size="635px" font-weight="700"><tspan class="TextPosition" x="4045" y="13168"><tspan fill="rgb(0,0,0)" stroke="none">devsignal</tspan></tspan></tspan><tspan class="TextParagraph" font-family="Liberation Sans, sans-serif" font-size="635px" font-weight="400"><tspan class="TextPosition" x="3508" y="13935"><tspan fill="rgb(0,0,0)" stroke="none">Signed complex </tspan></tspan><tspan class="TextPosition" x="4581" y="14646"><tspan fill="rgb(0,0,0)" stroke="none">samples</tspan></tspan></tspan></text>
         </g>
        </g>
        <g class="com.sun.star.drawing.LineShape">
         <g id="id12">
          <rect class="BoundingBox" stroke="none" fill="none" x="10367" y="7382" width="308" height="1906"/>
          <path fill="none" stroke="rgb(114,159,207)" d="M 10521,7819 L 10517,8857"/>
          <path fill="rgb(114,159,207)" stroke="none" d="M 10522,7382 L 10368,7839 10673,7840 10522,7382 Z"/>
          <path fill="rgb(114,159,207)" stroke="none" d="M 10516,9287 L 10667,8837 10367,8837 10516,9287 Z"/>
         </g>
        </g>
       </g>
      </g>
     </g>
    </g>
   </g>
  </g>
 </g>
</svg>