<?xml version="1.0" encoding="UTF-8"?>
<!DOCTYPE svg PUBLIC "-//W3C//DTD SVG 1.1//EN" "http://www.w3.org/Graphics/SVG/1.1/DTD/svg11.dtd">
<svg version="1.2" width="280mm" height="157.5mm" viewBox="0 0 28000 15750" preserveAspectRatio="xMidYMid" fill-rule="evenodd" stroke-width="28.222" stroke-linejoin="round" xmlns="http://www.w3.org/2000/svg" xmlns:ooo="http://xml.openoffice.org/svg/export" xmlns:xlink="http://www.w3.org/1999/xlink" xmlns:presentation="http://sun.com/xmlns/staroffice/presentation" xmlns:smil="http://www.w3.org/2001/SMIL20/" xmlns:anim="urn:oasis:names:tc:opendocument:xmlns:animation:1.0" xml:space="preserve">
 <defs class="ClipPathGroup">
  <clipPath id="presentation_clip_path" clipPathUnits="userSpaceOnUse">
   <rect x="0" y="0" width="28000" height="15750"/>
  </clipPath>
  <clipPath id="presentation_clip_path_shrink" clipPathUnits="userSpaceOnUse">
   <rect x="28" y="15" width="27944" height="15719"/>
  </clipPath>
 </defs>
 <defs>
  <font id="EmbeddedFont_1" horiz-adv-x="2048">
   <font-face font-family="Courier New embedded" units-per-em="2048" font-weight="normal" font-style="normal" ascent="1693" descent="628"/>
   <missing-glyph horiz-adv-x="2048" d="M 0,0 L 2047,0 2047,2047 0,2047 0,0 Z"/>
   <glyph unicode="t" horiz-adv-x="956" d="M 442,866 L 898,866 C 918,866 932,862 941,854 950,846 954,836 954,823 954,811 950,801 941,793 932,785 918,781 898,781 L 442,781 442,222 C 442,173 462,133 501,100 540,67 597,51 672,51 729,51 790,60 856,77 922,94 973,113 1010,134 1023,143 1034,147 1043,147 1054,147 1063,143 1071,135 1079,126 1083,116 1083,105 1083,95 1079,86 1070,77 1049,55 997,31 915,6 832,-20 753,-33 678,-33 580,-33 502,-10 444,36 386,82 357,144 357,222 L 357,781 202,781 C 182,781 168,785 159,793 150,801 146,811 146,824 146,836 150,846 159,854 168,862 182,866 202,866 L 357,866 357,1114 C 357,1134 361,1148 369,1157 377,1166 387,1170 399,1170 412,1170 422,1166 430,1157 438,1148 442,1134 442,1114 Z"/>
   <glyph unicode="r" horiz-adv-x="957" d="M 514,866 L 514,654 C 623,753 705,816 760,845 814,873 864,887 910,887 960,887 1007,870 1050,837 1093,803 1114,777 1114,760 1114,747 1110,737 1102,729 1093,720 1083,716 1070,716 1063,716 1058,717 1053,720 1048,722 1040,729 1027,742 1004,765 983,781 966,790 949,799 932,803 915,803 878,803 834,788 783,759 731,730 641,658 514,544 L 514,84 886,84 C 907,84 921,80 930,73 939,65 943,55 943,42 943,30 939,20 930,12 921,4 907,0 886,0 L 227,0 C 207,0 193,4 184,12 175,19 171,29 171,41 171,52 175,62 184,70 192,77 206,81 227,81 L 430,81 430,781 275,781 C 255,781 241,785 232,793 223,801 219,811 219,824 219,836 223,846 232,854 240,862 254,866 275,866 Z"/>
   <glyph unicode="p" horiz-adv-x="1094" d="M 298,866 L 298,713 C 348,774 402,819 459,850 516,881 584,896 662,896 745,896 821,877 891,838 961,799 1015,746 1054,677 1092,608 1111,535 1111,459 1111,338 1068,235 982,150 895,64 789,21 663,21 513,21 391,82 298,204 L 298,-302 502,-302 C 522,-302 536,-306 545,-314 554,-321 558,-331 558,-344 558,-356 554,-366 545,-374 536,-382 522,-386 502,-386 L 101,-386 C 81,-386 67,-382 58,-375 49,-367 45,-357 45,-344 45,-331 49,-321 58,-314 67,-306 81,-302 101,-302 L 214,-302 214,781 101,781 C 81,781 67,785 58,793 49,801 45,811 45,824 45,836 49,846 58,854 67,862 81,866 101,866 Z M 1026,459 C 1026,556 991,639 921,708 850,777 764,811 663,811 561,811 475,776 404,707 333,638 298,555 298,459 298,362 333,279 404,210 475,141 561,106 663,106 764,106 849,141 920,210 991,279 1026,362 1026,459 Z"/>
   <glyph unicode="o" horiz-adv-x="956" d="M 1084,431 C 1084,303 1038,194 947,103 855,12 744,-33 615,-33 484,-33 373,13 282,104 191,195 145,304 145,431 145,559 191,669 282,760 373,851 484,896 615,896 744,896 855,851 947,760 1038,669 1084,560 1084,431 Z M 999,431 C 999,536 962,626 887,700 812,774 721,811 614,811 507,811 417,774 342,700 267,625 229,536 229,431 229,327 267,238 342,163 417,88 507,51 614,51 721,51 812,88 887,163 962,237 999,326 999,431 Z"/>
   <glyph unicode="n" horiz-adv-x="1039" d="M 343,866 L 343,739 C 402,798 455,839 502,862 549,885 603,896 662,896 726,896 784,882 837,855 874,835 908,802 939,756 969,709 984,662 984,613 L 984,84 1055,84 C 1075,84 1089,80 1098,73 1107,65 1111,55 1111,42 1111,30 1107,20 1098,12 1089,4 1075,0 1055,0 L 830,0 C 809,0 795,4 786,12 777,20 773,30 773,42 773,55 777,65 786,73 795,80 809,84 830,84 L 900,84 900,599 C 900,658 878,709 835,750 792,791 734,811 661,811 606,811 558,800 517,778 476,755 418,700 343,611 L 343,84 438,84 C 458,84 472,80 481,73 490,65 494,55 494,42 494,30 490,20 481,12 472,4 458,0 438,0 L 164,0 C 144,0 130,4 121,12 112,20 108,30 108,42 108,55 112,65 121,73 130,80 144,84 164,84 L 259,84 259,781 188,781 C 168,781 154,785 145,793 136,801 132,811 132,824 132,836 136,846 145,854 154,862 168,866 188,866 Z"/>
   <glyph unicode="l" horiz-adv-x="902" d="M 657,1255 L 657,84 987,84 C 1008,84 1022,80 1031,73 1040,65 1044,55 1044,42 1044,30 1040,20 1031,12 1022,4 1008,0 987,0 L 243,0 C 223,0 209,4 200,12 191,20 187,30 187,42 187,55 191,65 200,73 209,80 223,84 243,84 L 573,84 573,1170 331,1170 C 311,1170 297,1174 288,1182 279,1190 274,1200 274,1213 274,1225 278,1235 287,1243 296,1251 310,1255 331,1255 Z"/>
   <glyph unicode="i" horiz-adv-x="902" d="M 656,1297 L 656,1080 532,1080 532,1297 Z M 659,866 L 659,84 989,84 C 1010,84 1024,80 1033,73 1042,65 1046,55 1046,42 1046,30 1042,20 1033,12 1024,4 1010,0 989,0 L 245,0 C 225,0 211,4 202,12 193,20 189,30 189,42 189,55 193,65 202,73 211,80 225,84 245,84 L 575,84 575,781 330,781 C 310,781 296,785 287,793 278,801 273,811 273,823 273,836 277,846 286,854 295,862 309,866 330,866 Z"/>
   <glyph unicode="c" horiz-adv-x="957" d="M 965,781 L 965,809 C 965,830 969,844 977,853 985,862 995,866 1007,866 1020,866 1030,862 1038,853 1046,844 1050,830 1050,809 L 1050,619 C 1049,598 1045,584 1038,575 1030,566 1020,562 1007,562 996,562 986,566 979,574 971,581 966,594 965,612 961,659 930,704 872,747 813,790 735,811 636,811 511,811 417,772 352,694 287,616 255,527 255,426 255,317 291,228 362,157 433,86 526,51 639,51 704,51 771,63 839,87 906,111 967,150 1022,203 1036,216 1048,223 1059,223 1070,223 1080,219 1088,212 1095,204 1099,194 1099,183 1099,154 1065,118 998,74 889,3 768,-33 635,-33 500,-33 389,10 302,97 215,183 171,292 171,425 171,560 216,673 305,762 394,851 506,896 641,896 770,896 878,858 965,781 Z"/>
   <glyph unicode="_" horiz-adv-x="1230" d="M 1173,-561 L 56,-561 C 36,-561 22,-557 13,-550 4,-542 0,-532 0,-519 0,-506 4,-496 13,-489 22,-481 36,-477 56,-477 L 1173,-477 C 1194,-477 1208,-481 1217,-489 1225,-496 1229,-506 1229,-519 1229,-532 1225,-542 1217,-550 1208,-557 1194,-561 1173,-561 Z"/>
  </font>
 </defs>
 <defs>
  <font id="EmbeddedFont_2" horiz-adv-x="2048">
   <font-face font-family="Courier New embedded" units-per-em="2048" font-weight="bold" font-style="normal" ascent="1693" descent="628"/>
   <missing-glyph horiz-adv-x="2048" d="M 0,0 L 2047,0 2047,2047 0,2047 0,0 Z"/>
   <glyph unicode="x" horiz-adv-x="1176" d="M 768,472 L 1079,205 C 1116,203 1144,193 1163,174 1182,155 1191,131 1191,102 1191,72 1181,48 1160,29 1139,10 1103,0 1054,0 L 821,0 C 772,0 737,10 716,29 695,48 684,73 684,104 684,128 692,149 707,168 722,186 742,198 768,205 L 615,337 459,205 C 490,197 513,185 527,168 540,151 547,130 547,104 547,73 537,48 516,29 495,10 460,0 411,0 L 180,0 C 131,0 96,10 75,29 54,48 43,72 43,103 43,131 52,155 71,174 90,193 118,203 155,205 L 459,473 190,703 C 155,706 128,717 110,736 91,755 82,778 82,806 82,836 93,861 114,880 135,899 170,908 219,908 L 411,908 C 460,908 496,899 517,880 538,861 548,836 548,807 548,768 529,736 492,711 L 616,608 738,713 C 701,739 683,769 683,803 683,835 694,861 715,880 736,899 771,908 820,908 L 1010,908 C 1059,908 1095,899 1116,880 1137,861 1147,836 1147,805 1147,778 1138,755 1120,736 1101,717 1074,706 1038,703 Z"/>
   <glyph unicode="w" horiz-adv-x="1284" d="M 616,378 L 474,0 281,0 109,703 C 72,705 44,716 25,735 6,754 -4,777 -4,806 -4,836 7,861 28,880 49,899 84,908 133,908 L 324,908 C 373,908 409,899 430,880 451,861 461,836 461,805 461,774 449,748 425,727 407,711 372,703 319,703 L 397,378 524,711 706,711 834,378 914,703 C 863,703 830,708 814,718 782,739 766,768 766,806 766,836 777,861 798,880 819,899 854,908 903,908 L 1096,908 C 1145,908 1181,899 1202,880 1223,861 1233,836 1233,805 1233,778 1224,755 1206,736 1187,717 1160,706 1124,703 L 956,0 766,0 Z"/>
   <glyph unicode="v" horiz-adv-x="1257" d="M 616,249 L 837,703 C 782,703 747,708 732,717 699,738 682,767 682,806 682,836 693,861 714,880 735,899 770,908 819,908 L 1100,908 C 1149,908 1185,899 1206,880 1227,861 1237,836 1237,805 1237,775 1227,751 1206,732 1185,713 1149,703 1100,703 L 1066,703 723,0 509,0 166,703 137,703 C 88,703 53,713 32,732 11,751 0,775 0,806 0,836 11,861 32,880 53,899 88,908 137,908 L 412,908 C 461,908 496,899 517,880 538,861 548,836 548,805 548,767 532,738 500,718 484,708 448,703 393,703 Z"/>
   <glyph unicode="u" horiz-adv-x="1176" d="M 1050,908 L 1050,205 C 1093,205 1125,195 1146,176 1167,157 1177,132 1177,102 1177,72 1167,48 1146,29 1125,10 1089,0 1040,0 L 845,0 845,47 C 786,20 730,0 677,-13 624,-26 573,-33 525,-33 458,-33 399,-19 350,10 301,38 262,77 233,127 212,163 202,208 202,262 L 202,703 167,703 C 118,703 83,713 62,732 41,751 30,775 30,806 30,836 41,861 62,880 83,899 118,908 167,908 L 407,908 407,298 C 407,255 418,223 439,203 460,182 492,172 535,172 576,172 621,180 669,197 716,213 775,242 845,285 L 845,703 771,703 C 722,703 687,713 666,732 645,751 634,775 634,806 634,836 645,861 666,880 687,899 722,908 771,908 Z"/>
   <glyph unicode="t" horiz-adv-x="1093" d="M 564,703 L 564,292 C 564,248 573,219 591,205 619,183 669,172 741,172 846,172 942,194 1031,239 1065,256 1092,265 1111,265 1138,265 1161,255 1181,235 1200,215 1210,191 1210,162 1210,135 1199,112 1178,93 1145,62 1081,33 985,7 888,-20 807,-33 741,-33 614,-33 518,-6 455,50 391,105 359,172 359,252 L 359,703 285,703 C 236,703 201,713 180,732 159,751 148,775 148,806 148,836 159,861 180,880 201,899 236,908 285,908 L 359,908 359,1093 C 359,1142 369,1178 388,1199 407,1220 431,1230 462,1230 492,1230 517,1220 536,1199 555,1178 564,1142 564,1093 L 564,908 943,908 C 992,908 1028,899 1049,880 1070,861 1080,836 1080,805 1080,775 1070,751 1049,732 1028,713 992,703 943,703 Z"/>
   <glyph unicode="s" horiz-adv-x="956" d="M 836,668 C 803,689 768,704 731,715 694,725 656,730 616,730 537,730 474,717 427,691 406,680 396,667 396,654 396,639 410,624 438,609 459,598 507,588 581,578 717,559 812,541 865,522 935,497 989,461 1027,412 1065,363 1084,312 1084,258 1084,185 1052,123 987,74 894,3 774,-33 626,-33 567,-33 512,-28 462,-18 411,-7 365,8 323,28 313,19 302,13 291,8 280,3 268,1 256,1 224,1 199,12 180,33 161,54 151,89 151,138 L 151,207 C 151,256 161,292 180,313 199,334 223,344 254,344 279,344 299,337 316,324 333,310 346,286 355,253 386,226 424,206 468,193 512,179 563,172 620,172 714,172 787,187 839,216 864,231 876,246 876,262 876,289 858,311 823,328 788,345 715,360 604,372 439,389 329,423 274,472 219,521 191,581 191,652 191,725 222,786 284,835 368,902 478,935 614,935 661,935 707,931 751,922 794,913 836,899 876,880 889,889 901,896 912,901 923,906 933,908 942,908 970,908 993,898 1012,877 1031,856 1040,820 1040,771 L 1040,721 C 1040,676 1035,646 1024,630 1003,599 974,584 937,584 912,584 891,592 872,607 853,622 841,643 836,668 Z"/>
   <glyph unicode="r" horiz-adv-x="1093" d="M 572,908 L 572,780 C 658,842 726,883 776,904 825,925 872,935 915,935 982,935 1046,910 1109,861 1152,828 1173,794 1173,759 1173,730 1163,705 1143,685 1122,664 1098,654 1069,654 1044,654 1017,667 989,692 961,717 936,730 914,730 885,730 843,712 786,676 729,640 657,586 572,514 L 572,205 864,205 C 913,205 949,196 970,177 991,158 1001,133 1001,102 1001,72 991,48 970,29 949,10 913,0 864,0 L 245,0 C 196,0 161,10 140,29 119,48 108,72 108,103 108,133 119,158 140,177 161,196 196,205 245,205 L 367,205 367,703 293,703 C 244,703 209,713 188,732 167,751 156,775 156,806 156,836 167,861 188,880 209,899 244,908 293,908 Z"/>
   <glyph unicode="p" horiz-adv-x="1202" d="M 360,113 L 360,-223 483,-223 C 532,-223 568,-233 589,-252 610,-271 620,-295 620,-326 620,-356 610,-381 589,-400 568,-419 532,-428 483,-428 L 120,-428 C 71,-428 36,-419 15,-400 -7,-381 -17,-356 -17,-326 -17,-295 -6,-271 15,-252 36,-233 71,-223 120,-223 L 155,-223 155,703 120,703 C 71,703 36,713 15,732 -7,751 -17,775 -17,806 -17,836 -7,861 15,880 36,899 71,908 120,908 L 360,908 360,838 C 408,871 458,895 509,911 560,927 613,935 667,935 807,935 926,888 1025,793 1124,698 1173,589 1173,466 1173,331 1115,219 998,131 901,58 791,21 669,21 616,21 564,29 513,44 462,59 411,82 360,113 Z M 968,465 C 968,494 957,530 934,575 911,619 877,656 830,686 783,715 727,730 664,730 562,730 481,692 421,615 380,562 360,512 360,463 360,408 389,355 448,304 506,252 578,226 664,226 751,226 823,252 881,303 939,354 968,408 968,465 Z"/>
   <glyph unicode="o" horiz-adv-x="1066" d="M 1147,437 C 1147,358 1125,282 1082,209 1038,135 973,76 887,33 800,-11 710,-33 616,-33 523,-33 433,-12 348,32 263,75 198,133 153,207 108,281 86,358 86,439 86,521 109,602 154,681 199,760 265,822 350,867 435,912 523,935 616,935 709,935 799,912 886,866 972,819 1037,757 1081,679 1125,600 1147,520 1147,437 Z M 942,436 C 942,502 918,563 871,618 806,693 721,730 616,730 523,730 446,700 384,641 322,582 291,513 291,435 291,371 322,311 385,256 448,200 525,172 616,172 708,172 785,200 848,256 911,311 942,371 942,436 Z"/>
   <glyph unicode="n" horiz-adv-x="1176" d="M 407,908 L 407,839 C 444,871 486,895 531,911 576,927 624,935 677,935 798,935 894,897 965,822 1021,762 1049,683 1049,586 L 1049,205 C 1092,205 1124,196 1145,177 1166,158 1176,133 1176,102 1176,72 1166,48 1145,29 1124,10 1088,0 1039,0 L 854,0 C 805,0 770,10 749,29 728,48 717,72 717,103 717,133 727,158 748,177 769,196 801,205 844,205 L 844,592 C 844,637 832,669 808,690 777,717 730,730 667,730 620,730 578,721 543,703 507,684 462,645 407,586 L 407,205 C 460,205 494,200 509,190 542,170 558,141 558,102 558,72 548,48 527,29 506,10 470,0 421,0 L 188,0 C 139,0 104,10 83,29 62,48 51,72 51,103 51,140 67,169 99,190 115,200 149,205 202,205 L 202,703 C 159,703 127,713 106,732 85,751 75,776 75,806 75,836 86,861 107,880 128,899 163,908 212,908 Z"/>
   <glyph unicode="l" horiz-adv-x="1012" d="M 717,1297 L 717,205 963,205 C 1012,205 1048,196 1069,177 1090,158 1100,133 1100,102 1100,72 1090,48 1069,29 1048,10 1012,0 963,0 L 266,0 C 217,0 182,10 161,29 140,48 129,72 129,103 129,133 140,158 161,177 182,196 217,205 266,205 L 512,205 512,1092 347,1092 C 298,1092 263,1102 242,1121 221,1140 210,1164 210,1195 210,1225 221,1250 242,1269 263,1288 298,1297 347,1297 Z"/>
   <glyph unicode="i" horiz-adv-x="1012" d="M 688,1297 L 688,1080 444,1080 444,1297 Z M 716,908 L 716,205 962,205 C 1011,205 1047,196 1068,177 1089,158 1099,133 1099,102 1099,72 1089,48 1068,29 1047,10 1011,0 962,0 L 265,0 C 216,0 181,10 160,29 139,48 128,72 128,103 128,133 139,158 160,177 181,196 216,205 265,205 L 511,205 511,703 346,703 C 297,703 262,713 241,732 220,751 209,775 209,806 209,836 220,861 241,880 262,899 297,908 346,908 Z"/>
   <glyph unicode="h" horiz-adv-x="1203" d="M 403,1297 L 403,860 C 446,885 489,904 533,917 576,929 620,935 665,935 736,935 799,923 854,899 909,875 955,837 992,786 1028,734 1046,669 1046,590 L 1046,205 C 1098,205 1132,200 1148,190 1180,169 1196,140 1196,102 1196,72 1186,48 1165,29 1144,10 1109,0 1060,0 L 826,0 C 777,0 743,10 722,29 701,48 690,72 690,103 690,140 706,169 738,190 755,201 789,206 840,205 L 840,576 C 840,629 828,666 804,687 773,716 726,730 665,730 620,730 580,721 545,704 510,686 462,648 403,589 L 403,205 C 456,205 490,200 505,190 538,169 554,140 554,102 554,72 544,48 523,29 502,10 466,0 417,0 L 184,0 C 135,0 100,10 79,29 58,48 47,72 47,103 47,140 63,169 96,190 112,201 146,206 198,205 L 198,1092 163,1092 C 114,1092 79,1102 58,1121 37,1140 26,1164 26,1195 26,1225 37,1250 58,1269 79,1288 114,1297 163,1297 Z"/>
   <glyph unicode="g" horiz-adv-x="1175" d="M 840,847 L 840,908 1080,908 C 1129,908 1165,899 1186,880 1207,861 1217,836 1217,805 1217,775 1207,751 1186,732 1165,713 1129,703 1080,703 L 1045,703 1045,-43 C 1045,-115 1030,-178 1000,-232 969,-285 923,-331 860,-370 797,-409 727,-428 648,-428 L 416,-428 C 367,-428 332,-419 311,-400 290,-381 279,-356 279,-326 279,-295 290,-271 311,-252 332,-233 367,-223 416,-223 L 642,-223 C 705,-223 753,-206 788,-172 823,-138 840,-95 840,-43 L 840,57 C 795,28 749,6 702,-9 655,-24 606,-31 557,-31 418,-31 301,16 207,109 113,202 66,316 66,453 66,590 113,706 207,799 301,892 418,938 557,938 609,938 659,931 706,916 753,901 797,878 840,847 Z M 839,454 C 839,529 811,595 756,650 700,705 633,733 555,733 477,733 410,705 355,650 299,595 271,529 271,454 271,378 299,313 355,258 410,203 477,175 555,175 633,175 700,203 756,258 811,313 839,378 839,454 Z"/>
   <glyph unicode="f" horiz-adv-x="1038" d="M 613,703 L 613,205 905,205 C 954,205 990,196 1011,177 1032,158 1042,133 1042,102 1042,72 1032,48 1011,29 990,10 954,0 905,0 L 286,0 C 237,0 202,10 181,29 160,48 149,72 149,103 149,133 160,158 181,177 202,196 237,205 286,205 L 408,205 408,703 310,703 C 261,703 226,713 205,732 184,751 173,775 173,806 173,836 184,861 205,880 226,899 261,908 310,908 L 408,908 408,986 C 408,1075 442,1150 509,1209 576,1268 673,1297 800,1297 857,1297 922,1292 997,1282 1071,1271 1119,1257 1140,1238 1161,1219 1171,1195 1171,1166 1171,1135 1162,1109 1143,1090 1124,1070 1101,1060 1074,1060 1061,1060 1042,1062 1017,1067 932,1084 857,1092 792,1092 724,1092 677,1082 652,1062 626,1041 613,1016 613,986 L 613,908 929,908 C 978,908 1014,899 1035,880 1056,861 1066,836 1066,805 1066,775 1056,751 1035,732 1014,713 978,703 929,703 Z"/>
   <glyph unicode="e" horiz-adv-x="1093" d="M 1129,350 L 288,350 C 309,297 347,254 402,221 456,188 529,172 622,172 698,172 799,188 925,221 977,234 1013,241 1033,241 1060,241 1083,231 1102,212 1121,193 1130,168 1130,139 1130,112 1120,90 1100,71 1073,46 1008,23 905,1 802,-22 702,-33 607,-33 443,-33 312,13 214,106 115,199 66,313 66,448 66,592 119,709 226,800 332,890 454,935 593,935 676,935 753,920 823,891 892,862 944,830 978,796 1026,747 1066,686 1097,613 1118,562 1129,504 1129,437 Z M 902,555 C 871,614 830,658 779,687 728,716 668,730 598,730 529,730 469,716 418,687 367,658 326,614 294,555 Z"/>
   <glyph unicode="d" horiz-adv-x="1230" d="M 1085,1297 L 1085,205 1120,205 C 1169,205 1204,196 1225,177 1246,158 1257,133 1257,102 1257,72 1247,48 1226,29 1205,10 1169,0 1120,0 L 880,0 880,50 C 833,23 785,2 734,-12 683,-26 630,-33 575,-33 421,-33 297,12 203,101 109,190 62,300 62,433 62,572 111,690 210,788 309,886 429,935 571,935 624,935 677,927 728,911 779,894 830,870 880,837 L 880,1092 845,1092 C 796,1092 761,1102 740,1121 719,1140 708,1164 708,1194 708,1225 719,1250 740,1269 761,1288 796,1297 845,1297 Z M 880,427 C 880,512 850,583 791,642 732,701 659,730 573,730 488,730 415,701 356,642 297,583 267,513 267,430 267,355 294,293 347,245 400,196 476,172 573,172 670,172 745,196 799,245 853,293 880,354 880,427 Z"/>
   <glyph unicode="c" horiz-adv-x="1066" d="M 934,871 C 959,894 984,906 1010,906 1039,906 1064,896 1083,875 1102,854 1111,819 1111,770 L 1111,638 C 1111,589 1102,554 1083,533 1064,512 1039,502 1008,502 980,502 956,510 937,526 923,538 912,563 904,600 896,637 877,664 846,682 792,714 723,730 639,730 542,730 465,702 407,645 348,588 319,517 319,430 319,350 347,287 403,241 459,194 552,171 682,171 767,171 837,180 891,197 923,208 953,226 982,252 1011,277 1037,290 1060,290 1088,290 1112,280 1133,259 1153,238 1163,214 1163,186 1163,141 1132,98 1070,57 978,-4 843,-34 666,-34 507,-34 383,-1 294,65 174,154 114,275 114,429 114,575 163,696 260,792 357,887 484,935 641,935 698,935 750,930 799,919 848,908 893,892 934,871 Z"/>
   <glyph unicode="b" horiz-adv-x="1202" d="M 356,1297 L 356,837 C 406,870 457,894 509,911 560,927 612,935 665,935 807,935 927,886 1026,788 1125,690 1174,572 1174,433 1174,300 1127,190 1033,101 939,12 815,-33 661,-33 606,-33 554,-26 503,-12 452,2 403,23 356,50 L 356,0 116,0 C 67,0 32,10 11,29 -11,48 -21,72 -21,103 -21,133 -10,158 11,177 32,196 67,205 116,205 L 151,205 151,1092 116,1092 C 67,1092 32,1102 11,1121 -11,1140 -21,1164 -21,1195 -21,1225 -11,1250 11,1269 32,1288 67,1297 116,1297 Z M 969,427 C 969,512 939,583 880,642 821,701 748,730 662,730 577,730 504,701 445,642 386,583 356,513 356,430 356,355 383,293 436,245 489,196 565,172 662,172 759,172 835,196 889,245 942,293 969,354 969,427 Z"/>
   <glyph unicode="a" horiz-adv-x="1121" d="M 799,0 L 799,48 C 748,21 691,0 629,-14 567,-27 511,-34 460,-34 350,-34 261,-5 192,54 123,112 89,176 89,247 89,333 133,413 221,487 308,560 429,597 584,597 646,597 718,590 799,577 L 799,626 C 799,657 786,682 760,701 733,720 683,730 609,730 548,730 470,718 373,694 337,685 309,681 289,681 262,681 239,691 220,711 201,730 191,755 191,786 191,803 194,818 201,831 208,844 217,854 229,862 241,869 266,878 304,889 355,903 406,914 459,923 512,931 559,935 602,935 729,935 828,908 899,853 969,798 1004,722 1004,627 L 1004,205 1039,205 C 1088,205 1124,196 1145,177 1166,158 1176,133 1176,102 1176,72 1166,48 1145,29 1124,10 1088,0 1039,0 Z M 799,367 C 717,383 641,391 572,391 489,391 417,371 357,330 320,304 301,278 301,251 301,232 310,216 328,204 361,182 407,171 465,171 514,171 570,181 633,200 695,219 750,246 799,279 Z"/>
   <glyph unicode="_" horiz-adv-x="1421" d="M 1182,-615 L 56,-615 C 7,-615 -29,-606 -50,-587 -71,-568 -81,-544 -81,-513 -81,-482 -71,-458 -50,-439 -29,-420 7,-410 56,-410 L 1182,-410 C 1231,-410 1266,-420 1287,-439 1308,-458 1318,-482 1318,-513 1318,-543 1308,-568 1287,-587 1266,-606 1231,-615 1182,-615 Z"/>
   <glyph unicode="]" horiz-adv-x="492" d="M 514,-115 L 514,1089 390,1089 C 341,1089 306,1099 285,1118 264,1137 253,1161 253,1191 253,1222 264,1247 285,1266 306,1285 341,1294 390,1294 L 719,1294 719,-320 391,-320 C 342,-320 307,-311 286,-292 265,-273 254,-248 254,-217 254,-187 265,-163 286,-144 307,-125 342,-115 391,-115 Z"/>
   <glyph unicode="[" horiz-adv-x="492" d="M 715,1089 L 715,-115 839,-115 C 888,-115 924,-124 945,-143 966,-162 976,-186 976,-217 976,-248 966,-273 945,-292 924,-311 888,-320 839,-320 L 510,-320 510,1294 838,1294 C 887,1294 923,1285 944,1266 965,1247 975,1222 975,1191 975,1161 965,1137 944,1118 923,1099 887,1089 838,1089 Z"/>
   <glyph unicode="9" horiz-adv-x="930" d="M 903,538 C 852,494 805,463 762,445 719,426 674,417 627,417 517,417 421,461 339,549 256,637 215,746 215,877 215,979 243,1072 300,1155 377,1270 486,1327 627,1327 728,1327 816,1297 891,1237 966,1176 1022,1089 1057,976 1092,862 1110,743 1110,620 1110,411 1029,243 867,116 742,19 604,-30 455,-30 372,-30 308,-13 263,20 232,42 217,71 217,107 217,136 227,161 247,181 266,200 290,210 319,210 335,210 353,205 373,195 399,182 426,175 455,175 558,175 654,210 741,281 828,351 882,437 903,538 Z M 874,861 C 852,956 820,1023 777,1063 734,1102 684,1122 629,1122 571,1122 522,1100 481,1056 440,1011 420,952 420,879 420,802 441,740 482,693 523,646 569,622 622,622 715,622 799,702 874,861 Z"/>
   <glyph unicode="6" horiz-adv-x="930" d="M 422,700 C 471,741 518,772 563,791 608,810 655,819 706,819 813,819 907,776 988,691 1069,606 1109,499 1109,370 1109,251 1072,154 997,81 922,7 820,-30 691,-30 584,-30 495,-5 426,45 357,95 304,172 269,276 234,380 216,496 216,624 216,777 251,905 321,1007 391,1108 473,1187 568,1243 663,1299 763,1327 868,1327 951,1327 1016,1311 1062,1278 1092,1256 1107,1228 1107,1194 1107,1164 1097,1139 1077,1119 1057,1098 1033,1088 1005,1088 989,1088 966,1096 936,1112 918,1121 901,1126 884,1126 819,1126 751,1108 681,1071 611,1034 550,977 499,900 464,847 438,780 422,700 Z M 452,383 C 473,303 502,248 539,219 575,190 627,175 694,175 761,175 813,193 850,228 886,263 904,311 904,372 904,441 883,499 842,545 800,591 753,614 701,614 660,614 616,594 569,553 522,512 483,456 452,383 Z"/>
   <glyph unicode="3" horiz-adv-x="984" d="M 907,685 C 968,644 1013,596 1043,542 1073,487 1088,426 1088,359 1088,286 1068,219 1029,158 989,96 931,49 856,18 781,-14 682,-30 560,-30 401,-30 282,-5 202,44 157,72 135,105 135,144 135,173 145,198 165,219 184,239 208,249 236,249 255,249 275,242 296,229 325,209 353,196 379,189 419,180 474,175 544,175 663,175 750,191 803,222 856,253 883,296 883,353 883,395 868,436 837,475 806,514 764,544 712,565 682,577 631,585 560,590 526,592 500,603 482,622 463,641 454,664 454,692 454,721 464,746 484,766 504,786 529,796 560,796 628,796 664,796 669,797 696,800 722,808 749,823 776,838 797,858 814,884 830,909 838,936 838,963 838,1006 819,1044 781,1076 742,1107 685,1123 608,1123 509,1123 434,1094 382,1037 367,1020 354,1010 345,1005 331,998 315,994 298,994 270,994 246,1004 226,1024 206,1044 196,1069 196,1098 196,1144 227,1189 288,1232 377,1295 489,1327 623,1327 750,1327 851,1291 928,1219 1005,1147 1043,1060 1043,959 1043,906 1032,857 1009,812 986,766 952,724 907,685 Z"/>
   <glyph unicode="1" horiz-adv-x="902" d="M 719,1327 L 719,205 926,205 C 975,205 1011,196 1032,177 1053,158 1063,133 1063,102 1063,72 1053,48 1032,29 1011,10 975,0 926,0 L 307,0 C 258,0 223,10 202,29 181,48 170,72 170,103 170,133 181,158 202,177 223,196 258,205 307,205 L 514,205 514,1060 331,1012 C 302,1004 280,1000 265,1000 239,1000 217,1010 198,1031 179,1052 169,1077 169,1107 169,1134 176,1156 190,1172 204,1187 233,1201 278,1213 Z"/>
   <glyph unicode="0" horiz-adv-x="902" d="M 1062,761 L 1062,536 C 1062,403 1024,275 947,153 870,31 759,-30 616,-30 533,-30 464,-12 407,25 350,61 296,128 245,226 194,323 168,427 168,536 L 168,761 C 168,894 206,1021 283,1144 360,1266 470,1327 613,1327 695,1327 765,1309 822,1273 879,1237 933,1170 985,1073 1036,975 1062,871 1062,761 Z M 856,761 C 856,872 825,970 763,1053 728,1099 678,1122 614,1122 552,1122 501,1097 462,1046 403,969 373,874 373,761 L 373,536 C 373,424 404,327 467,244 502,198 551,175 616,175 677,175 728,200 767,251 826,328 856,423 856,536 Z"/>
   <glyph unicode="." horiz-adv-x="356" d="M 771,103 C 771,64 757,32 730,6 703,-20 665,-33 617,-33 569,-33 531,-20 504,6 477,32 463,64 463,103 463,142 477,174 504,200 531,226 569,239 617,239 665,239 703,226 730,200 757,174 771,142 771,103 Z"/>
  </font>
 </defs>
 <defs>
  <font id="EmbeddedFont_3" horiz-adv-x="2048">
   <font-face font-family="Liberation Sans embedded" units-per-em="2048" font-weight="normal" font-style="normal" ascent="1857" descent="437"/>
   <missing-glyph horiz-adv-x="2048" d="M 0,0 L 2047,0 2047,2047 0,2047 0,0 Z"/>
   <glyph unicode="”" horiz-adv-x="574" d="M 607,1264 C 607,1202 601,1147 590,1098 579,1049 558,1001 528,952 L 407,952 C 470,1043 501,1130 501,1214 L 413,1214 413,1409 607,1409 Z M 276,1264 C 276,1194 270,1135 257,1088 244,1040 225,995 198,952 L 75,952 C 138,1043 169,1130 169,1214 L 81,1214 81,1409 276,1409 Z"/>
   <glyph unicode="“" horiz-adv-x="574" d="M 407,952 L 407,1098 C 407,1161 413,1218 425,1268 437,1317 457,1364 485,1409 L 607,1409 C 544,1318 513,1231 513,1147 L 601,1147 601,952 Z M 75,952 L 75,1098 C 75,1163 81,1220 94,1269 106,1318 126,1364 155,1409 L 276,1409 C 213,1318 181,1230 181,1147 L 270,1147 270,952 Z"/>
   <glyph unicode="w" horiz-adv-x="1530" d="M 1174,0 L 965,0 776,765 740,934 C 734,904 725,861 712,805 699,748 631,480 508,0 L 300,0 -3,1082 175,1082 358,347 C 363,331 377,265 401,149 L 418,223 644,1082 837,1082 1026,339 1072,149 1103,288 1308,1082 1484,1082 Z"/>
   <glyph unicode="u" horiz-adv-x="903" d="M 314,1082 L 314,396 C 314,325 321,269 335,230 349,191 371,162 402,145 433,128 478,119 537,119 624,119 692,149 742,208 792,267 817,350 817,455 L 817,1082 997,1082 997,231 C 997,105 999,28 1003,0 L 833,0 C 832,3 832,12 831,27 830,42 830,59 829,78 828,97 826,132 825,185 L 822,185 C 781,110 733,58 679,27 624,-5 557,-20 476,-20 357,-20 271,10 216,69 161,128 133,225 133,361 L 133,1082 Z"/>
   <glyph unicode="t" horiz-adv-x="548" d="M 554,8 C 495,-8 434,-16 372,-16 228,-16 156,66 156,229 L 156,951 31,951 31,1082 163,1082 216,1324 336,1324 336,1082 536,1082 536,951 336,951 336,268 C 336,216 345,180 362,159 379,138 408,127 450,127 474,127 509,132 554,141 Z"/>
   <glyph unicode="s" horiz-adv-x="902" d="M 950,299 C 950,197 912,118 835,63 758,8 650,-20 511,-20 376,-20 273,2 200,47 127,91 79,160 57,254 L 216,285 C 231,227 263,185 311,158 359,131 426,117 511,117 602,117 669,131 712,159 754,187 775,229 775,285 775,328 760,362 731,389 702,416 654,438 589,455 L 460,489 C 357,516 283,542 240,568 196,593 162,624 137,661 112,698 100,743 100,796 100,895 135,970 206,1022 276,1073 378,1099 513,1099 632,1099 727,1078 798,1036 868,994 912,927 931,834 L 769,814 C 759,862 732,899 689,925 645,950 586,963 513,963 432,963 372,951 333,926 294,901 275,864 275,814 275,783 283,758 299,738 315,718 339,701 370,687 401,673 467,654 568,629 663,605 732,583 774,563 816,542 849,520 874,495 898,470 917,442 930,410 943,377 950,340 950,299 Z"/>
   <glyph unicode="r" horiz-adv-x="547" d="M 142,0 L 142,830 C 142,906 140,990 136,1082 L 306,1082 C 311,959 314,886 314,861 L 318,861 C 347,954 380,1017 417,1051 454,1085 507,1102 575,1102 599,1102 623,1099 648,1092 L 648,927 C 624,934 592,937 552,937 477,937 420,905 381,841 342,776 322,684 322,564 L 322,0 Z"/>
   <glyph unicode="p" horiz-adv-x="957" d="M 1053,546 C 1053,169 920,-20 655,-20 488,-20 376,43 319,168 L 314,168 C 317,163 318,106 318,-2 L 318,-425 138,-425 138,861 C 138,972 136,1046 132,1082 L 306,1082 C 307,1079 308,1070 309,1054 310,1037 312,1012 314,978 315,944 316,921 316,908 L 320,908 C 352,975 394,1024 447,1055 500,1086 569,1101 655,1101 788,1101 888,1056 954,967 1020,878 1053,737 1053,546 Z M 864,542 C 864,693 844,800 803,865 762,930 698,962 609,962 538,962 482,947 442,917 401,887 371,840 350,777 329,713 318,630 318,528 318,386 341,281 386,214 431,147 505,113 607,113 696,113 762,146 803,212 844,277 864,387 864,542 Z"/>
   <glyph unicode="o" horiz-adv-x="984" d="M 1053,542 C 1053,353 1011,212 928,119 845,26 724,-20 565,-20 407,-20 288,28 207,125 126,221 86,360 86,542 86,915 248,1102 571,1102 736,1102 858,1057 936,966 1014,875 1053,733 1053,542 Z M 864,542 C 864,691 842,800 798,868 753,935 679,969 574,969 469,969 393,935 346,866 299,797 275,689 275,542 275,399 298,292 345,221 391,149 464,113 563,113 671,113 748,148 795,217 841,286 864,395 864,542 Z"/>
   <glyph unicode="n" horiz-adv-x="903" d="M 825,0 L 825,686 C 825,757 818,813 804,852 790,891 768,920 737,937 706,954 661,963 602,963 515,963 447,933 397,874 347,815 322,732 322,627 L 322,0 142,0 142,851 C 142,977 140,1054 136,1082 L 306,1082 C 307,1079 307,1070 308,1055 309,1040 310,1024 311,1005 312,986 313,950 314,897 L 317,897 C 358,972 406,1025 461,1056 515,1087 582,1102 663,1102 782,1102 869,1073 924,1014 979,955 1006,857 1006,721 L 1006,0 Z"/>
   <glyph unicode="m" horiz-adv-x="1476" d="M 768,0 L 768,686 C 768,791 754,863 725,903 696,943 645,963 570,963 493,963 433,934 388,875 343,816 321,734 321,627 L 321,0 142,0 142,851 C 142,977 140,1054 136,1082 L 306,1082 C 307,1079 307,1070 308,1055 309,1040 310,1024 311,1005 312,986 313,950 314,897 L 317,897 C 356,974 400,1027 450,1057 500,1087 561,1102 633,1102 715,1102 780,1086 828,1053 875,1020 908,968 927,897 L 930,897 C 967,970 1013,1022 1066,1054 1119,1086 1183,1102 1258,1102 1367,1102 1447,1072 1497,1013 1546,954 1571,856 1571,721 L 1571,0 1393,0 1393,686 C 1393,791 1379,863 1350,903 1321,943 1270,963 1195,963 1116,963 1055,934 1012,876 968,817 946,734 946,627 L 946,0 Z"/>
   <glyph unicode="l" horiz-adv-x="192" d="M 138,0 L 138,1484 318,1484 318,0 Z"/>
   <glyph unicode="i" horiz-adv-x="192" d="M 137,1312 L 137,1484 317,1484 317,1312 Z M 137,0 L 137,1082 317,1082 317,0 Z"/>
   <glyph unicode="h" horiz-adv-x="875" d="M 317,897 C 356,968 402,1020 457,1053 511,1086 580,1102 663,1102 780,1102 867,1073 923,1015 978,956 1006,858 1006,721 L 1006,0 825,0 825,686 C 825,762 818,819 804,856 790,893 767,920 735,937 703,954 659,963 602,963 517,963 450,934 399,875 348,816 322,737 322,638 L 322,0 142,0 142,1484 322,1484 322,1098 C 322,1057 321,1015 319,972 316,929 315,904 314,897 Z"/>
   <glyph unicode="g" horiz-adv-x="930" d="M 548,-425 C 430,-425 336,-402 266,-356 196,-309 151,-243 131,-158 L 312,-132 C 324,-182 351,-221 392,-248 433,-275 486,-288 553,-288 732,-288 822,-183 822,27 L 822,201 820,201 C 786,132 739,80 680,45 621,10 551,-8 472,-8 339,-8 242,36 180,124 117,212 86,350 86,539 86,730 120,872 187,963 254,1054 355,1099 492,1099 569,1099 635,1082 692,1047 748,1012 791,962 822,897 L 824,897 C 824,917 825,952 828,1001 831,1050 833,1077 836,1082 L 1007,1082 C 1003,1046 1001,971 1001,858 L 1001,31 C 1001,-273 850,-425 548,-425 Z M 822,541 C 822,629 810,705 786,769 762,832 728,881 685,915 641,948 591,965 536,965 444,965 377,932 335,865 293,798 272,690 272,541 272,393 292,287 331,222 370,157 438,125 533,125 590,125 640,142 684,175 728,208 762,256 786,319 810,381 822,455 822,541 Z"/>
   <glyph unicode="f" horiz-adv-x="548" d="M 361,951 L 361,0 181,0 181,951 29,951 29,1082 181,1082 181,1204 C 181,1303 203,1374 246,1417 289,1460 356,1482 445,1482 495,1482 537,1478 572,1470 L 572,1333 C 542,1338 515,1341 492,1341 446,1341 413,1329 392,1306 371,1283 361,1240 361,1179 L 361,1082 572,1082 572,951 Z"/>
   <glyph unicode="e" horiz-adv-x="984" d="M 276,503 C 276,379 302,283 353,216 404,149 479,115 578,115 656,115 719,131 766,162 813,193 844,233 861,281 L 1019,236 C 954,65 807,-20 578,-20 418,-20 296,28 213,123 129,218 87,360 87,548 87,727 129,864 213,959 296,1054 416,1102 571,1102 889,1102 1048,910 1048,527 L 1048,503 Z M 862,641 C 852,755 823,838 775,891 727,943 658,969 568,969 481,969 412,940 361,882 310,823 282,743 278,641 Z"/>
   <glyph unicode="d" horiz-adv-x="930" d="M 821,174 C 788,105 744,55 689,25 634,-5 565,-20 484,-20 347,-20 247,26 183,118 118,210 86,349 86,536 86,913 219,1102 484,1102 566,1102 634,1087 689,1057 744,1027 788,979 821,914 L 823,914 821,1035 821,1484 1001,1484 1001,223 C 1001,110 1003,36 1007,0 L 835,0 C 833,11 831,35 829,74 826,113 825,146 825,174 Z M 275,542 C 275,391 295,282 335,217 375,152 440,119 530,119 632,119 706,154 752,225 798,296 821,405 821,554 821,697 798,802 752,869 706,936 633,969 532,969 441,969 376,936 336,869 295,802 275,693 275,542 Z"/>
   <glyph unicode="c" horiz-adv-x="902" d="M 275,546 C 275,402 298,295 343,226 388,157 457,122 548,122 612,122 666,139 709,174 752,209 778,262 788,334 L 970,322 C 956,218 912,135 837,73 762,11 668,-20 553,-20 402,-20 286,28 207,124 127,219 87,359 87,542 87,724 127,863 207,959 287,1054 402,1102 551,1102 662,1102 754,1073 827,1016 900,959 945,880 964,779 L 779,765 C 770,825 746,873 708,908 670,943 616,961 546,961 451,961 382,929 339,866 296,803 275,696 275,546 Z"/>
   <glyph unicode="b" horiz-adv-x="957" d="M 1053,546 C 1053,169 920,-20 655,-20 573,-20 505,-5 451,25 396,54 352,102 318,168 L 316,168 C 316,147 315,116 312,74 309,31 307,7 306,0 L 132,0 C 136,36 138,110 138,223 L 138,1484 318,1484 318,1061 C 318,1018 317,967 314,908 L 318,908 C 351,977 396,1027 451,1057 506,1087 574,1102 655,1102 792,1102 892,1056 957,964 1021,872 1053,733 1053,546 Z M 864,540 C 864,691 844,800 804,865 764,930 699,963 609,963 508,963 434,928 388,859 341,790 318,680 318,529 318,387 341,282 386,215 431,147 505,113 607,113 698,113 763,147 804,214 844,281 864,389 864,540 Z"/>
   <glyph unicode="a" horiz-adv-x="1066" d="M 414,-20 C 305,-20 224,9 169,66 114,123 87,202 87,302 87,414 124,500 198,560 271,620 390,652 554,656 L 797,660 797,719 C 797,807 778,870 741,908 704,946 645,965 565,965 484,965 426,951 389,924 352,897 330,853 323,793 L 135,810 C 166,1005 310,1102 569,1102 705,1102 807,1071 876,1009 945,946 979,856 979,738 L 979,272 C 979,219 986,179 1000,152 1014,125 1041,111 1080,111 1097,111 1117,113 1139,118 L 1139,6 C 1094,-5 1047,-10 1000,-10 933,-10 885,8 855,43 824,78 807,132 803,207 L 797,207 C 751,124 698,66 637,32 576,-3 501,-20 414,-20 Z M 455,115 C 521,115 580,130 631,160 682,190 723,231 753,284 782,336 797,390 797,445 L 797,534 600,530 C 515,529 451,520 408,504 364,488 330,463 307,430 284,397 272,353 272,299 272,240 288,195 320,163 351,131 396,115 455,115 Z"/>
   <glyph unicode="S" horiz-adv-x="1203" d="M 1272,389 C 1272,259 1221,158 1120,87 1018,16 875,-20 690,-20 347,-20 148,99 93,338 L 278,375 C 299,290 345,228 414,189 483,149 578,129 697,129 820,129 916,150 983,193 1050,235 1083,297 1083,379 1083,425 1073,462 1052,491 1031,520 1001,543 963,562 925,581 880,596 827,609 774,622 716,635 652,650 541,675 456,699 399,724 341,749 295,776 262,807 229,837 203,872 186,913 168,954 159,1000 159,1053 159,1174 205,1267 298,1332 390,1397 522,1430 694,1430 854,1430 976,1406 1061,1357 1146,1308 1205,1224 1239,1106 L 1051,1073 C 1030,1148 991,1202 933,1236 875,1269 795,1286 692,1286 579,1286 493,1267 434,1230 375,1193 345,1137 345,1063 345,1020 357,984 380,956 403,927 436,903 479,884 522,864 609,840 738,811 781,801 825,791 868,781 911,770 952,758 991,744 1030,729 1067,712 1102,693 1136,674 1166,650 1191,622 1216,594 1236,561 1251,523 1265,485 1272,440 1272,389 Z"/>
   <glyph unicode="P" horiz-adv-x="1121" d="M 1258,985 C 1258,852 1215,746 1128,667 1041,588 922,549 773,549 L 359,549 359,0 168,0 168,1409 761,1409 C 919,1409 1041,1372 1128,1298 1215,1224 1258,1120 1258,985 Z M 1066,983 C 1066,1165 957,1256 738,1256 L 359,1256 359,700 746,700 C 959,700 1066,794 1066,983 Z"/>
   <glyph unicode="I" horiz-adv-x="219" d="M 189,0 L 189,1409 380,1409 380,0 Z"/>
   <glyph unicode="F" horiz-adv-x="1011" d="M 359,1253 L 359,729 1145,729 1145,571 359,571 359,0 168,0 168,1409 1169,1409 1169,1253 Z"/>
   <glyph unicode="D" horiz-adv-x="1230" d="M 1381,719 C 1381,574 1353,447 1296,338 1239,229 1159,145 1055,87 951,29 831,0 695,0 L 168,0 168,1409 634,1409 C 873,1409 1057,1349 1187,1230 1316,1110 1381,940 1381,719 Z M 1189,719 C 1189,894 1141,1027 1046,1119 950,1210 811,1256 630,1256 L 359,1256 359,153 673,153 C 776,153 867,176 946,221 1024,266 1084,332 1126,417 1168,502 1189,603 1189,719 Z"/>
   <glyph unicode="C" horiz-adv-x="1339" d="M 792,1274 C 636,1274 515,1224 428,1124 341,1023 298,886 298,711 298,538 343,400 434,295 524,190 646,137 800,137 997,137 1146,235 1245,430 L 1401,352 C 1343,231 1262,138 1157,75 1052,12 930,-20 791,-20 649,-20 526,10 423,69 319,128 240,212 186,322 131,431 104,561 104,711 104,936 165,1112 286,1239 407,1366 575,1430 790,1430 940,1430 1065,1401 1166,1342 1267,1283 1341,1196 1388,1081 L 1207,1021 C 1174,1103 1122,1166 1050,1209 977,1252 891,1274 792,1274 Z"/>
   <glyph unicode="A" horiz-adv-x="1367" d="M 1167,0 L 1006,412 364,412 202,0 4,0 579,1409 796,1409 1362,0 Z M 685,1265 L 676,1237 C 659,1182 635,1111 602,1024 L 422,561 949,561 768,1026 C 749,1072 731,1124 712,1182 Z"/>
   <glyph unicode=":" horiz-adv-x="219" d="M 187,875 L 187,1082 382,1082 382,875 Z M 187,0 L 187,207 382,207 382,0 Z"/>
   <glyph unicode="9" horiz-adv-x="984" d="M 1042,733 C 1042,491 998,305 910,175 821,45 695,-20 532,-20 422,-20 334,3 268,50 201,96 154,171 125,274 L 297,301 C 333,184 412,125 535,125 638,125 718,173 775,269 832,365 861,502 864,680 837,620 792,572 727,536 662,499 591,481 514,481 387,481 286,524 210,611 134,698 96,813 96,956 96,1103 137,1219 220,1304 303,1388 418,1430 565,1430 722,1430 840,1372 921,1256 1002,1140 1042,966 1042,733 Z M 846,907 C 846,1020 820,1112 768,1181 716,1250 646,1284 559,1284 472,1284 404,1255 354,1196 304,1137 279,1057 279,956 279,853 304,772 354,713 404,653 472,623 557,623 609,623 657,635 702,659 747,682 782,716 808,759 833,802 846,852 846,907 Z"/>
   <glyph unicode="6" horiz-adv-x="984" d="M 1049,461 C 1049,312 1009,195 928,109 847,23 736,-20 594,-20 435,-20 314,39 230,157 146,275 104,447 104,672 104,916 148,1103 235,1234 322,1365 447,1430 608,1430 821,1430 955,1334 1010,1143 L 838,1112 C 803,1227 725,1284 606,1284 503,1284 424,1236 368,1141 311,1045 283,906 283,725 316,786 362,832 421,864 480,895 548,911 625,911 755,911 858,870 935,789 1011,708 1049,598 1049,461 Z M 866,453 C 866,555 841,634 791,689 741,744 671,772 582,772 498,772 430,748 379,699 327,650 301,582 301,496 301,387 328,298 382,229 435,160 504,125 588,125 675,125 743,154 792,213 841,271 866,351 866,453 Z"/>
   <glyph unicode="3" horiz-adv-x="1011" d="M 1049,389 C 1049,259 1008,158 925,87 842,16 724,-20 571,-20 428,-20 315,12 230,77 145,141 94,236 78,362 L 264,379 C 288,212 390,129 571,129 662,129 733,151 785,196 836,241 862,307 862,395 862,472 833,532 774,575 715,618 629,639 518,639 L 416,639 416,795 514,795 C 613,795 689,817 744,860 798,903 825,962 825,1038 825,1113 803,1173 759,1217 714,1260 648,1282 561,1282 482,1282 418,1262 369,1221 320,1180 291,1123 283,1049 L 102,1063 C 115,1178 163,1268 246,1333 328,1398 434,1430 563,1430 704,1430 814,1397 893,1332 971,1266 1010,1174 1010,1057 1010,967 985,894 935,838 884,781 811,743 715,723 L 715,719 C 820,708 902,672 961,613 1020,554 1049,479 1049,389 Z"/>
   <glyph unicode="1" horiz-adv-x="929" d="M 156,0 L 156,153 515,153 515,1237 197,1010 197,1180 530,1409 696,1409 696,153 1039,153 1039,0 Z"/>
   <glyph unicode=")" horiz-adv-x="575" d="M 555,528 C 555,335 525,162 465,9 404,-144 311,-289 186,-424 L 12,-424 C 137,-284 229,-137 287,19 345,174 374,344 374,530 374,716 345,887 287,1042 228,1197 137,1345 12,1484 L 186,1484 C 312,1348 405,1203 465,1050 525,896 555,723 555,532 Z"/>
   <glyph unicode="(" horiz-adv-x="575" d="M 127,532 C 127,725 157,898 218,1051 278,1204 371,1349 496,1484 L 670,1484 C 545,1345 454,1198 396,1042 337,886 308,715 308,530 308,345 337,175 395,20 452,-135 544,-283 670,-424 L 496,-424 C 370,-288 277,-143 217,11 157,164 127,337 127,528 Z"/>
   <glyph unicode=" " horiz-adv-x="574"/>
  </font>
 </defs>
 <defs>
  <font id="EmbeddedFont_4" horiz-adv-x="2048">
   <font-face font-family="Liberation Sans embedded" units-per-em="2048" font-weight="normal" font-style="italic" ascent="1857" descent="437"/>
   <missing-glyph horiz-adv-x="2048" d="M 0,0 L 2047,0 2047,2047 0,2047 0,0 Z"/>
   <glyph unicode="t" horiz-adv-x="574" d="M 275,-20 C 218,-20 174,-3 142,31 109,65 93,110 93,166 93,203 98,246 108,296 L 234,951 109,951 135,1082 262,1082 367,1324 487,1324 440,1082 640,1082 614,951 414,951 289,306 C 281,266 277,234 277,211 277,152 307,123 367,123 395,123 428,128 467,137 L 448,4 C 382,-12 324,-20 275,-20 Z"/>
   <glyph unicode="s" horiz-adv-x="984" d="M 907,317 C 907,209 866,126 783,68 700,9 581,-20 425,-20 309,-20 217,-1 149,39 80,78 32,139 5,223 L 152,279 C 174,220 208,178 255,151 301,124 363,111 441,111 536,111 609,127 658,160 707,192 732,239 732,301 732,342 715,377 681,405 647,432 575,463 465,497 380,525 316,552 273,579 230,606 198,637 175,673 152,708 141,750 141,797 141,894 180,968 257,1021 334,1073 443,1099 584,1099 820,1099 953,1014 982,844 L 819,819 C 804,872 777,910 736,933 695,956 641,968 572,968 489,968 426,955 382,929 337,902 315,865 315,817 315,789 322,765 336,746 350,727 370,710 397,695 423,680 484,657 579,627 664,600 728,573 771,546 814,519 847,486 871,449 895,412 907,368 907,317 Z"/>
   <glyph unicode="r" horiz-adv-x="739" d="M 718,938 C 689,947 659,951 628,951 558,951 495,914 439,841 382,768 344,675 324,564 L 214,0 34,0 196,830 221,968 239,1082 409,1082 374,861 378,861 C 422,950 465,1012 508,1048 551,1084 600,1102 656,1102 687,1102 718,1097 751,1088 Z"/>
   <glyph unicode="p" horiz-adv-x="1148" d="M 554,-20 C 472,-20 405,-3 354,32 302,67 265,115 244,178 L 239,178 C 239,171 236,149 231,113 225,77 191,-102 128,-425 L -51,-425 198,861 C 213,935 225,1009 233,1082 L 400,1082 C 400,1064 398,1037 394,1000 389,963 386,936 383,921 L 387,921 C 436,984 487,1030 541,1059 595,1088 662,1102 741,1102 846,1102 927,1071 986,1008 1044,945 1073,858 1073,748 1073,613 1053,482 1012,355 971,228 913,133 839,72 764,11 669,-20 554,-20 Z M 689,963 C 623,963 567,950 520,923 473,896 433,855 400,801 367,746 342,678 323,597 304,515 295,442 295,377 295,294 316,229 359,183 401,136 460,113 535,113 618,113 683,138 731,189 779,239 817,319 844,429 871,538 885,634 885,716 885,798 869,860 838,901 807,942 757,963 689,963 Z"/>
   <glyph unicode="o" horiz-adv-x="1038" d="M 1074,683 C 1074,596 1061,506 1034,413 1007,319 969,240 920,175 870,110 809,61 737,29 665,-4 583,-20 491,-20 360,-20 257,19 181,98 105,177 67,284 67,419 70,555 94,676 141,781 188,886 252,966 335,1020 418,1074 520,1101 642,1101 782,1101 889,1065 963,992 1037,919 1074,816 1074,683 Z M 888,683 C 888,874 805,969 640,969 550,969 478,946 424,900 369,853 327,783 297,689 267,595 252,504 252,416 252,317 273,242 316,191 359,139 421,113 502,113 571,113 626,125 668,148 709,171 746,207 777,256 808,305 834,367 854,443 873,519 885,599 888,683 Z"/>
   <glyph unicode="n" horiz-adv-x="1039" d="M 717,0 L 843,645 C 855,704 861,754 861,795 861,906 801,962 682,962 598,962 524,930 460,866 396,802 353,715 332,606 L 214,0 34,0 200,851 C 213,914 226,991 239,1082 L 409,1082 C 409,1075 406,1049 399,1005 392,960 386,924 381,897 L 384,897 C 439,974 495,1027 551,1057 606,1086 672,1101 749,1101 848,1101 922,1077 972,1028 1021,979 1046,909 1046,817 1046,774 1039,720 1025,653 L 898,0 Z"/>
   <glyph unicode="m" horiz-adv-x="1585" d="M 660,0 L 784,634 C 801,717 809,775 809,808 809,858 796,896 771,923 746,949 704,962 647,962 570,962 502,929 445,863 387,797 349,711 331,604 L 213,0 34,0 200,851 C 213,914 226,991 239,1082 L 409,1082 C 409,1075 406,1049 399,1005 392,960 386,924 381,897 L 384,897 C 433,973 482,1026 531,1056 580,1086 638,1101 706,1101 787,1101 851,1081 898,1042 945,1002 974,944 983,869 1038,956 1093,1016 1147,1050 1200,1084 1262,1101 1331,1101 1421,1101 1490,1077 1539,1028 1587,979 1611,909 1611,817 1611,774 1604,720 1590,653 L 1463,0 1285,0 1409,634 C 1426,717 1434,775 1434,808 1434,858 1421,896 1396,923 1371,949 1329,962 1272,962 1195,962 1127,930 1070,865 1013,800 975,714 956,607 L 838,0 Z"/>
   <glyph unicode="i" horiz-adv-x="493" d="M 287,1312 L 321,1484 501,1484 467,1312 Z M 33,0 L 243,1082 423,1082 212,0 Z"/>
   <glyph unicode="e" horiz-adv-x="1011" d="M 256,503 C 252,480 249,442 247,390 247,301 269,233 314,186 358,139 425,115 514,115 579,115 637,131 690,163 743,195 784,239 813,294 L 951,231 C 902,144 841,80 766,40 691,0 600,-20 493,-20 359,-20 255,17 181,92 106,166 69,270 69,405 69,539 93,659 140,766 187,872 254,955 340,1014 426,1073 523,1102 630,1102 767,1102 873,1068 949,999 1025,930 1063,833 1063,708 1063,638 1055,570 1039,503 Z M 880,641 L 884,713 C 884,796 863,859 820,903 777,947 715,969 634,969 545,969 470,941 409,884 348,827 305,746 280,641 Z"/>
   <glyph unicode="a" horiz-adv-x="1066" d="M 927,-10 C 865,-10 820,3 792,29 763,54 749,92 749,143 L 754,207 748,207 C 693,123 635,64 576,31 517,-3 445,-20 361,-20 268,-20 192,8 134,64 75,120 46,191 46,278 46,401 90,495 179,558 267,621 408,654 601,657 L 833,660 C 846,725 852,768 852,787 852,848 834,893 799,922 764,951 715,965 652,965 573,965 513,951 472,923 431,894 402,851 384,793 L 206,822 C 236,920 288,991 363,1036 437,1080 537,1102 662,1102 776,1102 866,1075 933,1022 999,969 1032,897 1032,807 1032,764 1026,712 1013,650 L 939,272 C 932,240 928,211 928,184 928,135 955,111 1009,111 1027,111 1047,113 1069,118 L 1055,6 C 1011,-5 968,-10 927,-10 Z M 809,536 L 610,532 C 531,530 468,523 423,511 378,498 343,483 318,464 293,445 273,421 259,392 244,363 237,327 237,286 237,236 253,195 286,164 318,133 360,117 411,117 476,117 534,131 586,159 638,186 681,222 715,267 749,312 771,360 782,411 Z"/>
   <glyph unicode="P" horiz-adv-x="1312" d="M 852,1409 C 1006,1409 1128,1374 1218,1305 1308,1236 1353,1141 1353,1020 1353,873 1302,758 1201,675 1099,591 960,549 784,549 L 360,549 254,0 63,0 336,1409 Z M 390,700 L 777,700 C 1032,700 1159,804 1159,1011 1159,1090 1133,1151 1080,1193 1027,1235 950,1256 847,1256 L 498,1256 Z"/>
   <glyph unicode="N" horiz-adv-x="1448" d="M 987,0 L 456,1210 C 441,1096 427,1007 414,943 L 233,0 63,0 336,1409 548,1409 1082,194 C 1099,320 1114,415 1127,478 L 1308,1409 1480,1409 1207,0 Z"/>
   <glyph unicode="-" horiz-adv-x="574" d="M 105,464 L 136,624 636,624 605,464 Z"/>
   <glyph unicode=" " horiz-adv-x="574"/>
  </font>
 </defs>
 <defs class="TextShapeIndex">
  <g ooo:slide="id1" ooo:id-list="id3 id4 id5 id6 id7 id8 id9 id10 id11 id12 id13 id14 id15 id16 id17 id18 id19 id20 id21 id22 id23 id24"/>
 </defs>
 <defs class="EmbeddedBulletChars">
  <g id="bullet-char-template-57356" transform="scale(0.00048828125,-0.00048828125)">
   <path d="M 580,1141 L 1163,571 580,0 -4,571 580,1141 Z"/>
  </g>
  <g id="bullet-char-template-57354" transform="scale(0.00048828125,-0.00048828125)">
   <path d="M 8,1128 L 1137,1128 1137,0 8,0 8,1128 Z"/>
  </g>
  <g id="bullet-char-template-10146" transform="scale(0.00048828125,-0.00048828125)">
   <path d="M 174,0 L 602,739 174,1481 1456,739 174,0 Z M 1358,739 L 309,1346 659,739 1358,739 Z"/>
  </g>
  <g id="bullet-char-template-10132" transform="scale(0.00048828125,-0.00048828125)">
   <path d="M 2015,739 L 1276,0 717,0 1260,543 174,543 174,936 1260,936 717,1481 1274,1481 2015,739 Z"/>
  </g>
  <g id="bullet-char-template-10007" transform="scale(0.00048828125,-0.00048828125)">
   <path d="M 0,-2 C -7,14 -16,27 -25,37 L 356,567 C 262,823 215,952 215,954 215,979 228,992 255,992 264,992 276,990 289,987 310,991 331,999 354,1012 L 381,999 492,748 772,1049 836,1024 860,1049 C 881,1039 901,1025 922,1006 886,937 835,863 770,784 769,783 710,716 594,584 L 774,223 C 774,196 753,168 711,139 L 727,119 C 717,90 699,76 672,76 641,76 570,178 457,381 L 164,-76 C 142,-110 111,-127 72,-127 30,-127 9,-110 8,-76 1,-67 -2,-52 -2,-32 -2,-23 -1,-13 0,-2 Z"/>
  </g>
  <g id="bullet-char-template-10004" transform="scale(0.00048828125,-0.00048828125)">
   <path d="M 285,-33 C 182,-33 111,30 74,156 52,228 41,333 41,471 41,549 55,616 82,672 116,743 169,778 240,778 293,778 328,747 346,684 L 369,508 C 377,444 397,411 428,410 L 1163,1116 C 1174,1127 1196,1133 1229,1133 1271,1133 1292,1118 1292,1087 L 1292,965 C 1292,929 1282,901 1262,881 L 442,47 C 390,-6 338,-33 285,-33 Z"/>
  </g>
  <g id="bullet-char-template-9679" transform="scale(0.00048828125,-0.00048828125)">
   <path d="M 813,0 C 632,0 489,54 383,161 276,268 223,411 223,592 223,773 276,916 383,1023 489,1130 632,1184 813,1184 992,1184 1136,1130 1245,1023 1353,916 1407,772 1407,592 1407,412 1353,268 1245,161 1136,54 992,0 813,0 Z"/>
  </g>
  <g id="bullet-char-template-8226" transform="scale(0.00048828125,-0.00048828125)">
   <path d="M 346,457 C 273,457 209,483 155,535 101,586 74,649 74,723 74,796 101,859 155,911 209,963 273,989 346,989 419,989 480,963 531,910 582,859 608,796 608,723 608,648 583,586 532,535 482,483 420,457 346,457 Z"/>
  </g>
  <g id="bullet-char-template-8211" transform="scale(0.00048828125,-0.00048828125)">
   <path d="M -4,459 L 1135,459 1135,606 -4,606 -4,459 Z"/>
  </g>
  <g id="bullet-char-template-61548" transform="scale(0.00048828125,-0.00048828125)">
   <path d="M 173,740 C 173,903 231,1043 346,1159 462,1274 601,1332 765,1332 928,1332 1067,1274 1183,1159 1299,1043 1357,903 1357,740 1357,577 1299,437 1183,322 1067,206 928,148 765,148 601,148 462,206 346,322 231,437 173,577 173,740 Z"/>
  </g>
 </defs>
 <g>
  <g id="id2" class="Master_Slide">
   <g id="bg-id2" class="Background"/>
   <g id="bo-id2" class="BackgroundObjects"/>
  </g>
 </g>
 <g class="SlideGroup">
  <g>
   <g id="container-id1">
    <g id="id1" class="Slide" clip-path="url(#presentation_clip_path)">
     <g class="Page">
      <g class="com.sun.star.drawing.TextShape">
       <g id="id3">
        <rect class="BoundingBox" stroke="none" fill="none" x="5638" y="8542" width="9145" height="2029"/>
       </g>
      </g>
      <g class="com.sun.star.drawing.LineShape">
       <g id="id4">
        <rect class="BoundingBox" stroke="none" fill="none" x="13385" y="6833" width="359" height="1525"/>
        <path fill="none" stroke="rgb(114,159,207)" stroke-width="35" stroke-linejoin="round" d="M 13564,7845 L 13564,7338"/>
        <path fill="rgb(114,159,207)" stroke="none" d="M 13564,8357 L 13743,7822 13386,7822 13564,8357 Z"/>
        <path fill="rgb(114,159,207)" stroke="none" d="M 13564,6833 L 13388,7361 13740,7361 13564,6833 Z"/>
       </g>
      </g>
      <g class="com.sun.star.drawing.TextShape">
       <g id="id5">
        <rect class="BoundingBox" stroke="none" fill="none" x="8992" y="5044" width="9653" height="1917"/>
        <text class="TextShape"><tspan class="TextParagraph" font-family="Liberation Sans, sans-serif" font-size="494px" font-style="italic" font-weight="400"><tspan class="TextPosition" x="10000" y="5618"><tspan fill="rgb(0,132,209)" stroke="none">Non-parameter Properties</tspan><tspan font-style="normal" fill="rgb(0,132,209)" stroke="none">: see the </tspan></tspan><tspan class="TextPosition" x="10355" y="6173"><tspan font-style="normal" fill="rgb(0,132,209)" stroke="none">descriptions in “Properties” with </tspan></tspan><tspan class="TextPosition" x="11917" y="6728"><tspan font-style="normal" fill="rgb(0,132,209)" stroke="none">Parameter: False</tspan></tspan></tspan></text>
       </g>
      </g>
      <g class="Group">
       <g class="com.sun.star.drawing.TextShape">
        <g id="id6">
         <rect class="BoundingBox" stroke="none" fill="none" x="1118" y="2388" width="5970" height="2773"/>
         <text class="TextShape"><tspan class="TextParagraph" font-family="Courier New" font-size="494px" font-weight="700"><tspan class="TextPosition" x="1810" y="2962"><tspan fill="rgb(0,0,0)" stroke="none">dev_cfg_data_rx</tspan><tspan font-family="Liberation Sans, sans-serif" font-weight="400" fill="rgb(0,0,0)" stroke="none"> </tspan></tspan><tspan class="TextPosition" x="2272" y="3559"><tspan fill="rgb(0,0,0)" stroke="none">devsignal</tspan><tspan font-family="Liberation Sans, sans-serif" font-weight="400" fill="rgb(0,0,0)" stroke="none"> port</tspan></tspan><tspan class="TextPosition" x="2998" y="4156"><tspan font-family="Liberation Sans, sans-serif" font-weight="400" fill="rgb(0,0,0)" stroke="none"> sent from </tspan></tspan><tspan class="TextPosition" x="1436" y="4673"><tspan fill="rgb(0,0,0)" stroke="none">ad9361_adc_sub.hdl</tspan></tspan></tspan></text>
        </g>
       </g>
       <g class="com.sun.star.drawing.TextShape">
        <g id="id7">
         <rect class="BoundingBox" stroke="none" fill="none" x="6960" y="2388" width="5970" height="2773"/>
         <text class="TextShape"><tspan class="TextParagraph" font-family="Courier New" font-size="494px" font-weight="700"><tspan class="TextPosition" x="7722" y="2924"><tspan fill="rgb(0,0,0)" stroke="none">dev_cfg_data[0]</tspan></tspan><tspan class="TextPosition" x="8114" y="3521"><tspan fill="rgb(0,0,0)" stroke="none">devsignal</tspan><tspan font-family="Liberation Sans, sans-serif" font-weight="400" fill="rgb(0,0,0)" stroke="none"> port</tspan></tspan><tspan class="TextPosition" x="8840" y="4118"><tspan font-family="Liberation Sans, sans-serif" font-weight="400" fill="rgb(0,0,0)" stroke="none"> sent from </tspan></tspan><tspan class="TextPosition" x="7278" y="4635"><tspan fill="rgb(0,0,0)" stroke="none">ad9361_adc_sub.hdl</tspan></tspan></tspan></text>
        </g>
       </g>
       <g class="com.sun.star.drawing.TextShape">
        <g id="id8">
         <rect class="BoundingBox" stroke="none" fill="none" x="14834" y="2388" width="5970" height="2773"/>
         <text class="TextShape"><tspan class="TextParagraph" font-family="Courier New" font-size="494px" font-weight="700"><tspan class="TextPosition" x="15526" y="2962"><tspan fill="rgb(0,0,0)" stroke="none">dev_cfg_data[1]</tspan><tspan font-family="Liberation Sans, sans-serif" font-weight="400" fill="rgb(0,0,0)" stroke="none"> </tspan></tspan><tspan class="TextPosition" x="15988" y="3559"><tspan fill="rgb(0,0,0)" stroke="none">devsignal</tspan><tspan font-family="Liberation Sans, sans-serif" font-weight="400" fill="rgb(0,0,0)" stroke="none"> port</tspan></tspan><tspan class="TextPosition" x="16714" y="4156"><tspan font-family="Liberation Sans, sans-serif" font-weight="400" fill="rgb(0,0,0)" stroke="none"> sent from </tspan></tspan><tspan class="TextPosition" x="15152" y="4673"><tspan fill="rgb(0,0,0)" stroke="none">ad9361_dac_sub.hdl</tspan></tspan></tspan></text>
        </g>
       </g>
       <g class="com.sun.star.drawing.TextShape">
        <g id="id9">
         <rect class="BoundingBox" stroke="none" fill="none" x="20676" y="2388" width="5970" height="2773"/>
         <text class="TextShape"><tspan class="TextParagraph" font-family="Courier New" font-size="494px" font-weight="700"><tspan class="TextPosition" x="21368" y="2962"><tspan fill="rgb(0,0,0)" stroke="none">dev_cfg_data_tx</tspan><tspan font-family="Liberation Sans, sans-serif" font-weight="400" fill="rgb(0,0,0)" stroke="none"> </tspan></tspan><tspan class="TextPosition" x="21830" y="3559"><tspan fill="rgb(0,0,0)" stroke="none">devsignal</tspan><tspan font-family="Liberation Sans, sans-serif" font-weight="400" fill="rgb(0,0,0)" stroke="none"> port</tspan></tspan><tspan class="TextPosition" x="22556" y="4156"><tspan font-family="Liberation Sans, sans-serif" font-weight="400" fill="rgb(0,0,0)" stroke="none"> sent from </tspan></tspan><tspan class="TextPosition" x="20994" y="4673"><tspan fill="rgb(0,0,0)" stroke="none">ad9361_dac_sub.hdl</tspan></tspan></tspan></text>
        </g>
       </g>
      </g>
      <g class="Group">
       <g class="com.sun.star.drawing.TextShape">
        <g id="id10">
         <rect class="BoundingBox" stroke="none" fill="none" x="1245" y="11278" width="6478" height="2457"/>
         <text class="TextShape"><tspan class="TextParagraph" font-family="Courier New" font-size="494px" font-weight="700"><tspan class="TextPosition" x="1599" y="11852"><tspan fill="rgb(0,0,0)" stroke="none">dev_force_spi_reset</tspan><tspan font-family="Liberation Sans, sans-serif" font-weight="400" fill="rgb(0,0,0)" stroke="none"> </tspan></tspan><tspan class="TextPosition" x="2653" y="12449"><tspan fill="rgb(0,0,0)" stroke="none">devsignal</tspan><tspan font-family="Liberation Sans, sans-serif" font-weight="400" fill="rgb(0,0,0)" stroke="none"> port</tspan></tspan><tspan class="TextPosition" x="2361" y="13046"><tspan font-family="Liberation Sans, sans-serif" font-weight="400" fill="rgb(0,0,0)" stroke="none"> (see AD9361 SPI) </tspan></tspan></tspan></text>
        </g>
       </g>
       <g class="com.sun.star.drawing.TextShape">
        <g id="id11">
         <rect class="BoundingBox" stroke="none" fill="none" x="8992" y="11278" width="4700" height="2937"/>
         <text class="TextShape"><tspan class="TextParagraph" font-family="Courier New" font-size="494px" font-weight="700"><tspan class="TextPosition" x="9938" y="11852"><tspan fill="rgb(0,0,0)" stroke="none">raw_props</tspan><tspan font-family="Liberation Sans, sans-serif" font-weight="400" fill="rgb(0,0,0)" stroke="none"> </tspan></tspan><tspan class="TextPosition" x="9511" y="12449"><tspan fill="rgb(0,0,0)" stroke="none">devsignal</tspan><tspan font-family="Liberation Sans, sans-serif" font-weight="400" fill="rgb(0,0,0)" stroke="none"> port</tspan></tspan><tspan class="TextPosition" x="9289" y="13046"><tspan font-family="Liberation Sans, sans-serif" font-weight="400" fill="rgb(0,0,0)" stroke="none"> (see AD9361 SPI)</tspan></tspan></tspan></text>
        </g>
       </g>
       <g class="com.sun.star.drawing.TextShape">
        <g id="id12">
         <rect class="BoundingBox" stroke="none" fill="none" x="14453" y="11278" width="5716" height="2937"/>
         <text class="TextShape"><tspan class="TextParagraph" font-family="Courier New" font-size="494px" font-weight="700"><tspan class="TextPosition" x="14722" y="11852"><tspan fill="rgb(0,0,0)" stroke="none">dev_cfg_data_port</tspan><tspan font-family="Liberation Sans, sans-serif" font-weight="400" fill="rgb(0,0,0)" stroke="none"> </tspan></tspan><tspan class="TextPosition" x="15480" y="12449"><tspan fill="rgb(0,0,0)" stroke="none">devsignal</tspan><tspan font-family="Liberation Sans, sans-serif" font-weight="400" fill="rgb(0,0,0)" stroke="none"> port</tspan></tspan><tspan class="TextPosition" x="15217" y="13046"><tspan font-family="Liberation Sans, sans-serif" font-weight="400" fill="rgb(0,0,0)" stroke="none"> (see AD9361 Data </tspan></tspan><tspan class="TextPosition" x="16718" y="13601"><tspan font-family="Liberation Sans, sans-serif" font-weight="400" fill="rgb(0,0,0)" stroke="none">Sub) </tspan></tspan></tspan></text>
        </g>
       </g>
       <g class="com.sun.star.drawing.TextShape">
        <g id="id13">
         <rect class="BoundingBox" stroke="none" fill="none" x="20549" y="11278" width="5716" height="2937"/>
         <text class="TextShape"><tspan class="TextParagraph" font-family="Courier New" font-size="494px" font-weight="700"><tspan class="TextPosition" x="20818" y="11852"><tspan fill="rgb(0,0,0)" stroke="none">dev_txen_data_sub</tspan><tspan font-family="Liberation Sans, sans-serif" font-weight="400" fill="rgb(0,0,0)" stroke="none"> </tspan></tspan><tspan class="TextPosition" x="21576" y="12449"><tspan fill="rgb(0,0,0)" stroke="none">devsignal</tspan><tspan font-family="Liberation Sans, sans-serif" font-weight="400" fill="rgb(0,0,0)" stroke="none"> port</tspan></tspan><tspan class="TextPosition" x="21313" y="13046"><tspan font-family="Liberation Sans, sans-serif" font-weight="400" fill="rgb(0,0,0)" stroke="none"> (see AD9361 Data </tspan></tspan><tspan class="TextPosition" x="22814" y="13601"><tspan font-family="Liberation Sans, sans-serif" font-weight="400" fill="rgb(0,0,0)" stroke="none">Sub) </tspan></tspan></tspan></text>
        </g>
       </g>
      </g>
      <g class="com.sun.star.drawing.LineShape">
       <g id="id14">
        <rect class="BoundingBox" stroke="none" fill="none" x="3984" y="5164" width="354" height="3131"/>
        <path fill="none" stroke="rgb(0,0,0)" stroke-width="35" stroke-linejoin="round" d="M 4134,5182 L 4161,7789"/>
        <path fill="rgb(0,0,0)" stroke="none" d="M 4166,8294 L 4337,7764 3985,7768 4166,8294 Z"/>
       </g>
      </g>
      <g class="Group">
       <g class="com.sun.star.drawing.CustomShape">
        <g id="id15">
         <rect class="BoundingBox" stroke="none" fill="none" x="1751" y="8228" width="24514" height="2416"/>
         <path fill="rgb(114,159,207)" stroke="none" d="M 14008,10642 L 1752,10642 1752,8229 26263,8229 26263,10642 14008,10642 Z"/>
         <path fill="none" stroke="rgb(52,101,164)" d="M 14008,10642 L 1752,10642 1752,8229 26263,8229 26263,10642 14008,10642 Z"/>
        </g>
       </g>
       <g class="com.sun.star.drawing.TextShape">
        <g id="id16">
         <rect class="BoundingBox" stroke="none" fill="none" x="9754" y="9373" width="6732" height="1144"/>
         <text class="TextShape"><tspan class="TextParagraph" font-family="Liberation Sans, sans-serif" font-size="635px" font-weight="400"><tspan class="TextPosition" x="10004" y="10074"><tspan fill="rgb(255,255,255)" stroke="none">AD9361 Config</tspan></tspan></tspan></text>
        </g>
       </g>
       <g class="com.sun.star.drawing.TextShape">
        <g id="id17">
         <rect class="BoundingBox" stroke="none" fill="none" x="9881" y="8484" width="9653" height="1366"/>
         <text class="TextShape"><tspan class="TextParagraph" font-family="Liberation Sans, sans-serif" font-size="494px" font-style="italic" font-weight="400"><tspan class="TextPosition" x="10131" y="9058"><tspan fill="rgb(255,255,255)" stroke="none">Parameter Properties</tspan><tspan font-style="normal" fill="rgb(255,255,255)" stroke="none">: </tspan><tspan font-family="Courier New" font-style="normal" fill="rgb(255,255,255)" stroke="none">pin_control_p</tspan></tspan></tspan></text>
        </g>
       </g>
      </g>
      <g class="com.sun.star.drawing.LineShape">
       <g id="id18">
        <rect class="BoundingBox" stroke="none" fill="none" x="23796" y="5164" width="354" height="3131"/>
        <path fill="none" stroke="rgb(0,0,0)" stroke-width="35" stroke-linejoin="round" d="M 23946,5182 L 23973,7789"/>
        <path fill="rgb(0,0,0)" stroke="none" d="M 23978,8294 L 24149,7764 23797,7768 23978,8294 Z"/>
       </g>
      </g>
      <g class="com.sun.star.drawing.LineShape">
       <g id="id19">
        <rect class="BoundingBox" stroke="none" fill="none" x="8588" y="5055" width="354" height="3131"/>
        <path fill="none" stroke="rgb(0,0,0)" stroke-width="35" stroke-linejoin="round" d="M 8738,8167 L 8765,5560"/>
        <path fill="rgb(0,0,0)" stroke="none" d="M 8770,5055 L 8589,5581 8941,5585 8770,5055 Z"/>
       </g>
      </g>
      <g class="com.sun.star.drawing.LineShape">
       <g id="id20">
        <rect class="BoundingBox" stroke="none" fill="none" x="18748" y="5055" width="354" height="3067"/>
        <path fill="none" stroke="rgb(0,0,0)" stroke-width="35" stroke-linejoin="round" d="M 18898,8103 L 18925,5560"/>
        <path fill="rgb(0,0,0)" stroke="none" d="M 18930,5055 L 18748,5581 19100,5585 18930,5055 Z"/>
       </g>
      </g>
      <g class="com.sun.star.drawing.LineShape">
       <g id="id21">
        <rect class="BoundingBox" stroke="none" fill="none" x="4143" y="10616" width="301" height="791"/>
        <path fill="none" stroke="rgb(0,0,0)" d="M 4293,10617 L 4293,10976"/>
        <path fill="rgb(0,0,0)" stroke="none" d="M 4293,11406 L 4443,10956 4143,10956 4293,11406 Z"/>
       </g>
      </g>
      <g class="com.sun.star.drawing.LineShape">
       <g id="id22">
        <rect class="BoundingBox" stroke="none" fill="none" x="11636" y="10642" width="301" height="791"/>
        <path fill="none" stroke="rgb(0,0,0)" d="M 11786,10643 L 11786,11002"/>
        <path fill="rgb(0,0,0)" stroke="none" d="M 11786,11432 L 11936,10982 11636,10982 11786,11432 Z"/>
       </g>
      </g>
      <g class="com.sun.star.drawing.LineShape">
       <g id="id23">
        <rect class="BoundingBox" stroke="none" fill="none" x="17351" y="10642" width="301" height="764"/>
        <path fill="none" stroke="rgb(0,0,0)" d="M 17501,10643 L 17501,10975"/>
        <path fill="rgb(0,0,0)" stroke="none" d="M 17501,11405 L 17651,10955 17351,10955 17501,11405 Z"/>
       </g>
      </g>
      <g class="com.sun.star.drawing.LineShape">
       <g id="id24">
        <rect class="BoundingBox" stroke="none" fill="none" x="23193" y="10643" width="301" height="764"/>
        <path fill="none" stroke="rgb(0,0,0)" d="M 23343,11405 L 23343,11073"/>
        <path fill="rgb(0,0,0)" stroke="none" d="M 23343,10643 L 23193,11093 23493,11093 23343,10643 Z"/>
       </g>
      </g>
     </g>
    </g>
   </g>
  </g>
 </g>
</svg>